results.vcd
$date
  Wed May 24 17:35:31 2017
$end
$version
  GHDL v0
$end
$timescale
  1 fs
$end
$var reg 1 ! l_clk_100 $end
$scope module fpga $end
$var reg 1 " i_clk_100 $end
$var reg 1 # c_br $end
$var reg 1 $ c_wr $end
$var reg 1 % c_ack $end
$var reg 1 & c_std $end
$var reg 1 ' c_rst $end
$var reg 32 ( c_adr[31:0] $end
$var reg 32 ) c_wdt[31:0] $end
$var reg 32 * c_rdt[31:0] $end
$var reg 32 + r_addr[31:0] $end
$var reg 32 , r_dati[31:0] $end
$var reg 32 - r_dato[31:0] $end
$var reg 1 . r_we $end
$var reg 1 / r_rdy $end
$var reg 1 0 r_ads $end
$var reg 1 1 l_clk $end
$var reg 3 2 l_clk_cnt[2:0] $end
$scope module cpu $end
$var reg 1 3 i_clk $end
$var reg 1 4 i_rdy $end
$var reg 32 5 i_rdt[31:0] $end
$var reg 1 6 q_wr $end
$var reg 32 7 q_adr[31:0] $end
$var reg 32 8 q_wdt[31:0] $end
$var reg 32 9 c_imm[31:0] $end
$var reg 5 : c_alufc[4:0] $end
$var reg 5 ; c_reg[4:0] $end
$var reg 4 < c_sl[3:0] $end
$var reg 1 = c_locka $end
$var reg 1 > c_lockb $end
$var reg 1 ? c_lockc $end
$var reg 1 @ c_rbus $end
$var reg 1 A c_busr $end
$var reg 1 B c_pcbus $end
$var reg 1 C c_buspc $end
$var reg 1 D c_csrbus $end
$var reg 1 E c_buscsr $end
$var reg 1 F c_bussel $end
$var reg 1 G c_inc_4 $end
$var reg 1 H c_rdir $end
$var reg 1 I c_stall $end
$var reg 32 J f_pc[31:0] $end
$var reg 32 K f_data[31:0] $end
$var reg 32 L r_out[31:0] $end
$var reg 32 M s_out[31:0] $end
$var reg 32 N r_ir[31:0] $end
$var reg 32 O r_pc[31:0] $end
$var reg 32 P r_a[31:0] $end
$var reg 32 Q r_b[31:0] $end
$var reg 32 R r_ci[31:0] $end
$var reg 32 S r_co[31:0] $end
$var reg 3 T a_cc[2:0] $end
$var reg 32 U l_busa[31:0] $end
$var reg 32 V l_busb[31:0] $end
$var reg 32 W l_busc[31:0] $end
$scope module cu $end
$var reg 1 X i_clk $end
$var reg 1 Y i_stall $end
$var reg 3 Z i_cc[2:0] $end
$var reg 32 [ i_instr[31:0] $end
$var reg 32 \ q_imm[31:0] $end
$var reg 5 ] q_alufc[4:0] $end
$var reg 5 ^ q_reg[4:0] $end
$var reg 1 _ q_rdir $end
$var reg 1 ` q_locka $end
$var reg 1 a q_lockb $end
$var reg 1 b q_lockc $end
$var reg 1 c q_rbus $end
$var reg 1 d q_busr $end
$var reg 1 e q_pcbus $end
$var reg 1 f q_buspc $end
$var reg 1 g q_csrbus $end
$var reg 1 h q_buscsr $end
$var reg 4 i q_sl[3:0] $end
$var reg 1 j q_bussel $end
$var reg 1 k q_pc_inc_4 $end
$var reg 33 l d_type[32:0] $end
$var reg 6 m d_format[5:0] $end
$var reg 9 n d_func[8:0] $end
$var reg 1 o c_inc $end
$var reg 1 p c_rst $end
$var reg 8 q c_cycle[7:0] $end
$var reg 5 r r_reg[4:0] $end
$var reg 5 s r_alufc[4:0] $end
$var reg 4 t r_sl[3:0] $end
$var reg 1 u r_immout $end
$var reg 1 v r_locka $end
$var reg 1 w r_lockb $end
$var reg 1 x r_lockc $end
$var reg 1 y r_rbus $end
$var reg 1 z r_busr $end
$var reg 1 { r_pcbus $end
$var reg 1 | r_buspc $end
$var reg 1 } r_bussel $end
$var reg 1 !" r_csrbus $end
$var reg 1 "" r_buscsr $end
$var reg 1 #" r_inc $end
$var reg 1 $" r_rst $end
$var reg 32 %" l_imm[31:0] $end
$scope module it_dec $end
$var reg 7 &" i_instr[6:0] $end
$var reg 33 '" q_type[32:0] $end
$var reg 1 (" l_valid32 $end
$upscope $end
$scope module ifo_dec $end
$var reg 33 )" i_type[32:0] $end
$var reg 6 *" q_format[5:0] $end
$upscope $end
$scope module ifu_dec $end
$var reg 32 +" i_instr[31:0] $end
$var reg 6 ," i_format[5:0] $end
$var reg 9 -" q_func[8:0] $end
$var reg 8 ." l_func[7:0] $end
$var reg 1 /" l_ext $end
$upscope $end
$scope module cg $end
$var reg 1 0" i_clk $end
$var reg 1 1" i_inc $end
$var reg 1 2" i_rst $end
$var reg 8 3" q_cycle[7:0] $end
$var reg 8 4" l_cycle[7:0] $end
$upscope $end
$scope module rcl $end
$var reg 32 5" i_instr[31:0] $end
$var reg 33 6" i_type[32:0] $end
$var reg 9 7" i_func[8:0] $end
$var reg 8 8" i_cycle[7:0] $end
$var reg 3 9" i_cc[2:0] $end
$var reg 5 :" q_reg[4:0] $end
$var reg 5 ;" q_alufc[4:0] $end
$var reg 1 <" q_immout $end
$var reg 1 =" q_locka $end
$var reg 1 >" q_lockb $end
$var reg 1 ?" q_lockc $end
$var reg 1 @" q_rbus $end
$var reg 1 A" q_busr $end
$var reg 1 B" q_pcbus $end
$var reg 1 C" q_buspc $end
$var reg 1 D" q_bussel $end
$var reg 1 E" q_csrbus $end
$var reg 1 F" q_buscsr $end
$var reg 4 G" q_sl[3:0] $end
$var reg 1 H" q_cycle_inc $end
$var reg 1 I" q_cycle_rst $end
$var reg 1 J" q_pc_inc_4 $end
$var reg 5 K" l_func_alu[4:0] $end
$var reg 5 L" l_inst_alu[4:0] $end
$var reg 1 M" l_alusel $end
$var reg 1 N" l_bt $end
$var reg 5 O" l_reg[4:0] $end
$var reg 1 P" l_rst $end
$var reg 1 Q" l_csri $end
$upscope $end
$upscope $end
$scope module rf $end
$var reg 1 R" i_clk $end
$var reg 1 S" i_we $end
$var reg 1 T" i_oe $end
$var reg 5 U" i_reg[4:0] $end
$var reg 32 V" i_in[31:0] $end
$var reg 32 W" q_out[31:0] $end
$var reg 32 X" l_write[31:0] $end
$var reg 32 Y" l_writes[31:0] $end
$var reg 32 Z" l_r0[31:0] $end
$var reg 32 [" l_r1[31:0] $end
$var reg 32 \" l_r2[31:0] $end
$var reg 32 ]" l_r3[31:0] $end
$var reg 32 ^" l_r4[31:0] $end
$var reg 32 _" l_r5[31:0] $end
$var reg 32 `" l_r6[31:0] $end
$var reg 32 a" l_r7[31:0] $end
$var reg 32 b" l_r8[31:0] $end
$var reg 32 c" l_r9[31:0] $end
$var reg 32 d" l_r10[31:0] $end
$var reg 32 e" l_r11[31:0] $end
$var reg 32 f" l_r12[31:0] $end
$var reg 32 g" l_r13[31:0] $end
$var reg 32 h" l_r14[31:0] $end
$var reg 32 i" l_r15[31:0] $end
$var reg 32 j" l_r16[31:0] $end
$var reg 32 k" l_r17[31:0] $end
$var reg 32 l" l_r18[31:0] $end
$var reg 32 m" l_r19[31:0] $end
$var reg 32 n" l_r20[31:0] $end
$var reg 32 o" l_r21[31:0] $end
$var reg 32 p" l_r22[31:0] $end
$var reg 32 q" l_r23[31:0] $end
$var reg 32 r" l_r24[31:0] $end
$var reg 32 s" l_r25[31:0] $end
$var reg 32 t" l_r26[31:0] $end
$var reg 32 u" l_r27[31:0] $end
$var reg 32 v" l_r28[31:0] $end
$var reg 32 w" l_r29[31:0] $end
$var reg 32 x" l_r30[31:0] $end
$var reg 32 y" l_r31[31:0] $end
$var reg 32 z" l_out[31:0] $end
$scope module r1 $end
$var reg 1 {" i_clk $end
$var reg 32 |" i_d[31:0] $end
$var reg 1 }" i_w $end
$var reg 32 !# q_d[31:0] $end
$var reg 32 "# l_content[31:0] $end
$upscope $end
$scope module r2 $end
$var reg 1 ## i_clk $end
$var reg 32 $# i_d[31:0] $end
$var reg 1 %# i_w $end
$var reg 32 &# q_d[31:0] $end
$var reg 32 '# l_content[31:0] $end
$upscope $end
$scope module r3 $end
$var reg 1 (# i_clk $end
$var reg 32 )# i_d[31:0] $end
$var reg 1 *# i_w $end
$var reg 32 +# q_d[31:0] $end
$var reg 32 ,# l_content[31:0] $end
$upscope $end
$scope module r4 $end
$var reg 1 -# i_clk $end
$var reg 32 .# i_d[31:0] $end
$var reg 1 /# i_w $end
$var reg 32 0# q_d[31:0] $end
$var reg 32 1# l_content[31:0] $end
$upscope $end
$scope module r5 $end
$var reg 1 2# i_clk $end
$var reg 32 3# i_d[31:0] $end
$var reg 1 4# i_w $end
$var reg 32 5# q_d[31:0] $end
$var reg 32 6# l_content[31:0] $end
$upscope $end
$scope module r6 $end
$var reg 1 7# i_clk $end
$var reg 32 8# i_d[31:0] $end
$var reg 1 9# i_w $end
$var reg 32 :# q_d[31:0] $end
$var reg 32 ;# l_content[31:0] $end
$upscope $end
$scope module r7 $end
$var reg 1 <# i_clk $end
$var reg 32 =# i_d[31:0] $end
$var reg 1 ># i_w $end
$var reg 32 ?# q_d[31:0] $end
$var reg 32 @# l_content[31:0] $end
$upscope $end
$scope module r8 $end
$var reg 1 A# i_clk $end
$var reg 32 B# i_d[31:0] $end
$var reg 1 C# i_w $end
$var reg 32 D# q_d[31:0] $end
$var reg 32 E# l_content[31:0] $end
$upscope $end
$scope module r9 $end
$var reg 1 F# i_clk $end
$var reg 32 G# i_d[31:0] $end
$var reg 1 H# i_w $end
$var reg 32 I# q_d[31:0] $end
$var reg 32 J# l_content[31:0] $end
$upscope $end
$scope module r10 $end
$var reg 1 K# i_clk $end
$var reg 32 L# i_d[31:0] $end
$var reg 1 M# i_w $end
$var reg 32 N# q_d[31:0] $end
$var reg 32 O# l_content[31:0] $end
$upscope $end
$scope module r11 $end
$var reg 1 P# i_clk $end
$var reg 32 Q# i_d[31:0] $end
$var reg 1 R# i_w $end
$var reg 32 S# q_d[31:0] $end
$var reg 32 T# l_content[31:0] $end
$upscope $end
$scope module r12 $end
$var reg 1 U# i_clk $end
$var reg 32 V# i_d[31:0] $end
$var reg 1 W# i_w $end
$var reg 32 X# q_d[31:0] $end
$var reg 32 Y# l_content[31:0] $end
$upscope $end
$scope module r13 $end
$var reg 1 Z# i_clk $end
$var reg 32 [# i_d[31:0] $end
$var reg 1 \# i_w $end
$var reg 32 ]# q_d[31:0] $end
$var reg 32 ^# l_content[31:0] $end
$upscope $end
$scope module r14 $end
$var reg 1 _# i_clk $end
$var reg 32 `# i_d[31:0] $end
$var reg 1 a# i_w $end
$var reg 32 b# q_d[31:0] $end
$var reg 32 c# l_content[31:0] $end
$upscope $end
$scope module r15 $end
$var reg 1 d# i_clk $end
$var reg 32 e# i_d[31:0] $end
$var reg 1 f# i_w $end
$var reg 32 g# q_d[31:0] $end
$var reg 32 h# l_content[31:0] $end
$upscope $end
$scope module r16 $end
$var reg 1 i# i_clk $end
$var reg 32 j# i_d[31:0] $end
$var reg 1 k# i_w $end
$var reg 32 l# q_d[31:0] $end
$var reg 32 m# l_content[31:0] $end
$upscope $end
$scope module r17 $end
$var reg 1 n# i_clk $end
$var reg 32 o# i_d[31:0] $end
$var reg 1 p# i_w $end
$var reg 32 q# q_d[31:0] $end
$var reg 32 r# l_content[31:0] $end
$upscope $end
$scope module r18 $end
$var reg 1 s# i_clk $end
$var reg 32 t# i_d[31:0] $end
$var reg 1 u# i_w $end
$var reg 32 v# q_d[31:0] $end
$var reg 32 w# l_content[31:0] $end
$upscope $end
$scope module r19 $end
$var reg 1 x# i_clk $end
$var reg 32 y# i_d[31:0] $end
$var reg 1 z# i_w $end
$var reg 32 {# q_d[31:0] $end
$var reg 32 |# l_content[31:0] $end
$upscope $end
$scope module r20 $end
$var reg 1 }# i_clk $end
$var reg 32 !$ i_d[31:0] $end
$var reg 1 "$ i_w $end
$var reg 32 #$ q_d[31:0] $end
$var reg 32 $$ l_content[31:0] $end
$upscope $end
$scope module r21 $end
$var reg 1 %$ i_clk $end
$var reg 32 &$ i_d[31:0] $end
$var reg 1 '$ i_w $end
$var reg 32 ($ q_d[31:0] $end
$var reg 32 )$ l_content[31:0] $end
$upscope $end
$scope module r22 $end
$var reg 1 *$ i_clk $end
$var reg 32 +$ i_d[31:0] $end
$var reg 1 ,$ i_w $end
$var reg 32 -$ q_d[31:0] $end
$var reg 32 .$ l_content[31:0] $end
$upscope $end
$scope module r23 $end
$var reg 1 /$ i_clk $end
$var reg 32 0$ i_d[31:0] $end
$var reg 1 1$ i_w $end
$var reg 32 2$ q_d[31:0] $end
$var reg 32 3$ l_content[31:0] $end
$upscope $end
$scope module r24 $end
$var reg 1 4$ i_clk $end
$var reg 32 5$ i_d[31:0] $end
$var reg 1 6$ i_w $end
$var reg 32 7$ q_d[31:0] $end
$var reg 32 8$ l_content[31:0] $end
$upscope $end
$scope module r25 $end
$var reg 1 9$ i_clk $end
$var reg 32 :$ i_d[31:0] $end
$var reg 1 ;$ i_w $end
$var reg 32 <$ q_d[31:0] $end
$var reg 32 =$ l_content[31:0] $end
$upscope $end
$scope module r26 $end
$var reg 1 >$ i_clk $end
$var reg 32 ?$ i_d[31:0] $end
$var reg 1 @$ i_w $end
$var reg 32 A$ q_d[31:0] $end
$var reg 32 B$ l_content[31:0] $end
$upscope $end
$scope module r27 $end
$var reg 1 C$ i_clk $end
$var reg 32 D$ i_d[31:0] $end
$var reg 1 E$ i_w $end
$var reg 32 F$ q_d[31:0] $end
$var reg 32 G$ l_content[31:0] $end
$upscope $end
$scope module r28 $end
$var reg 1 H$ i_clk $end
$var reg 32 I$ i_d[31:0] $end
$var reg 1 J$ i_w $end
$var reg 32 K$ q_d[31:0] $end
$var reg 32 L$ l_content[31:0] $end
$upscope $end
$scope module r29 $end
$var reg 1 M$ i_clk $end
$var reg 32 N$ i_d[31:0] $end
$var reg 1 O$ i_w $end
$var reg 32 P$ q_d[31:0] $end
$var reg 32 Q$ l_content[31:0] $end
$upscope $end
$scope module r30 $end
$var reg 1 R$ i_clk $end
$var reg 32 S$ i_d[31:0] $end
$var reg 1 T$ i_w $end
$var reg 32 U$ q_d[31:0] $end
$var reg 32 V$ l_content[31:0] $end
$upscope $end
$scope module r31 $end
$var reg 1 W$ i_clk $end
$var reg 32 X$ i_d[31:0] $end
$var reg 1 Y$ i_w $end
$var reg 32 Z$ q_d[31:0] $end
$var reg 32 [$ l_content[31:0] $end
$upscope $end
$upscope $end
$scope module ifu $end
$var reg 1 \$ i_clk $end
$var reg 1 ]$ i_inc_4 $end
$var reg 1 ^$ i_ldpc $end
$var reg 1 _$ i_rdir $end
$var reg 1 `$ i_rdy $end
$var reg 4 a$ i_sl[3:0] $end
$var reg 32 b$ i_pc[31:0] $end
$var reg 32 c$ i_data[31:0] $end
$var reg 32 d$ i_adr[31:0] $end
$var reg 1 e$ q_wr $end
$var reg 1 f$ q_stall $end
$var reg 1 g$ q_ads $end
$var reg 32 h$ q_adr[31:0] $end
$var reg 32 i$ q_ir[31:0] $end
$var reg 32 j$ q_pc[31:0] $end
$var reg 32 k$ q_data[31:0] $end
$var reg 1 l$ s_w $end
$var reg 1 m$ s_sh1 $end
$var reg 2 n$ s_amt[1:0] $end
$var reg 32 o$ s_d[31:0] $end
$var reg 1 p$ pc_inc_4 $end
$var reg 1 q$ a_inc_4 $end
$var reg 32 r$ a_ar[31:0] $end
$var reg 2 s$ l_t[1:0] $end
$var reg 1 t$ l_wr $end
$var reg 1 u$ l_udr $end
$var reg 1 v$ l_ads $end
$var reg 1 w$ l_stall $end
$var reg 32 x$ l_adr[31:0] $end
$var reg 32 y$ l_data[31:0] $end
$var reg 32 z$ l_dat[31:0] $end
$scope module ir $end
$var reg 1 {$ i_clk $end
$var reg 32 |$ i_d[31:0] $end
$var reg 1 }$ i_w $end
$var reg 1 !% i_rst $end
$var reg 1 "% i_shift1 $end
$var reg 2 #% q_amt[1:0] $end
$var reg 32 $% q_d[31:0] $end
$var reg 2 %% l_amt[1:0] $end
$var reg 64 &% l_content[63:0] $end
$upscope $end
$scope module pc $end
$var reg 1 '% i_clk $end
$var reg 1 (% i_inc_4 $end
$var reg 1 )% i_ld $end
$var reg 32 *% i_in[31:0] $end
$var reg 32 +% q_pc[31:0] $end
$var reg 32 ,% l_pc[31:0] $end
$upscope $end
$scope module ar $end
$var reg 1 -% i_clk $end
$var reg 1 .% i_inc_4 $end
$var reg 1 /% i_ld $end
$var reg 32 0% i_in[31:0] $end
$var reg 32 1% q_ar[31:0] $end
$var reg 32 2% l_ar[31:0] $end
$upscope $end
$upscope $end
$scope module reg_a $end
$var reg 1 3% i_clk $end
$var reg 32 4% i_d[31:0] $end
$var reg 1 5% i_w $end
$var reg 32 6% q_d[31:0] $end
$var reg 32 7% l_content[31:0] $end
$upscope $end
$scope module reg_b $end
$var reg 1 8% i_clk $end
$var reg 32 9% i_d[31:0] $end
$var reg 1 :% i_w $end
$var reg 32 ;% q_d[31:0] $end
$var reg 32 <% l_content[31:0] $end
$upscope $end
$scope module reg_c $end
$var reg 1 =% i_clk $end
$var reg 32 >% i_d[31:0] $end
$var reg 1 ?% i_w $end
$var reg 32 @% q_d[31:0] $end
$var reg 32 A% l_content[31:0] $end
$upscope $end
$scope module alu_t $end
$var reg 1 B% i_clk $end
$var reg 32 C% i_a[31:0] $end
$var reg 32 D% i_b[31:0] $end
$var reg 5 E% i_fc[4:0] $end
$var reg 3 F% q_cc[2:0] $end
$var reg 32 G% q_o[31:0] $end
$var reg 3 H% l_cc[2:0] $end
$var reg 32 I% l_out[31:0] $end
$var reg 33 J% l_alu[32:0] $end
$var reg 33 K% l_shift[32:0] $end
$var reg 33 L% u_a[32:0] $end
$var reg 33 M% u_b[32:0] $end
$var reg 33 N% s_a[32:0] $end
$var reg 33 O% s_b[32:0] $end
$upscope $end
$upscope $end
$scope module ram_t $end
$var reg 1 P% i_clk $end
$var reg 32 Q% i_addr[31:0] $end
$var reg 1 R% i_we $end
$var reg 1 S% i_ads $end
$var reg 1 T% q_rdy $end
$var reg 32 U% i_data[31:0] $end
$var reg 32 V% q_data[31:0] $end
$comment ram is not handled $end
$var reg 32 W% l_data[31:0] $end
$var integer 32 X% l_iadr $end
$var reg 1 Y% l_rdy $end
$upscope $end
$upscope $end
$enddefinitions $end
#0
1!
1"
U#
U$
U%
U&
U'
bUUUUUUUUUUUUUUUUUUUUUUUUUUUUUUUU (
bUUUUUUUUUUUUUUUUUUUUUUUUUUUUUUUU )
bUUUUUUUUUUUUUUUUUUUUUUUUUUUUUUUU *
b00000000000000000000000000000000 +
b00000000000000000000000000000000 ,
bUUUUUUUUUUUUUUUUUUUUUUUUUUUUUUUU -
0.
1/
10
01
b000 2
03
14
b00000000000000000000000000000000 5
06
b00000000000000000000000000000000 7
bUUUUUUUUUUUUUUUUUUUUUUUUUUUUUUUU 8
bZZZZZZZZZZZZZZZZZZZZZZZZZZZZZZZZ 9
b00000 :
b00000 ;
b0000 <
0=
0>
0?
0@
0A
0B
0C
0D
0E
0F
0G
1H
0I
b00000000000000000000000000000000 J
b00000000000000000000000000000000 K
bZZZZZZZZZZZZZZZZZZZZZZZZZZZZZZZZ L
b00000000000000000000000000000000 M
b00000000000000000000000000000000 N
b00000000000000000001000000000000 O
b00000000000000000000000000000000 P
b00000000000000000000000000000000 Q
b00000000000000000000000000000000 R
b00000000000000000000000000000000 S
b001 T
bZZZZZZZZZZZZZZZZZZZZZZZZZZZZZZZZ U
bZZZZZZZZZZZZZZZZZZZZZZZZZZZZZZZZ V
b00000000000000000000000000000000 W
0X
0Y
b001 Z
b00000000000000000000000000000000 [
bZZZZZZZZZZZZZZZZZZZZZZZZZZZZZZZZ \
b00000 ]
b00000 ^
1_
0`
0a
0b
0c
0d
0e
0f
0g
0h
b0000 i
0j
0k
b000000000000000000000000000000000 l
b000000 m
b000000001 n
0o
0p
b00000001 q
b00000 r
b00000 s
b0000 t
0u
0v
0w
0x
0y
0z
0{
0|
0}
0!"
0""
1#"
1$"
b00000000000000000000000000000000 %"
b0000000 &"
b000000000000000000000000000000000 '"
0("
b000000000000000000000000000000000 )"
b000000 *"
b00000000000000000000000000000000 +"
b000000 ,"
b000000001 -"
b00000001 ."
0/"
00"
01"
02"
b00000001 3"
b00000001 4"
b00000000000000000000000000000000 5"
b000000000000000000000000000000000 6"
b000000001 7"
b00000001 8"
b001 9"
b00000 :"
b00000 ;"
0<"
0="
0>"
0?"
0@"
0A"
0B"
0C"
0D"
0E"
0F"
b0000 G"
1H"
1I"
0J"
b00010 K"
b00000 L"
0M"
0N"
b00000 O"
1P"
0Q"
0R"
0S"
0T"
b00000 U"
b00000000000000000000000000000000 V"
bZZZZZZZZZZZZZZZZZZZZZZZZZZZZZZZZ W"
b00000000000000000000000000000000 X"
b00000000000000000000000000000001 Y"
b00000000000000000000000000000000 Z"
b00000000000000000000000000000000 ["
b00000000000000000000000000000000 \"
b00000000000000000000000000000000 ]"
b00000000000000000000000000000000 ^"
b00000000000000000000000000000000 _"
b00000000000000000000000000000000 `"
b00000000000000000000000000000000 a"
b00000000000000000000000000000000 b"
b00000000000000000000000000000000 c"
b00000000000000000000000000000000 d"
b00000000000000000000000000000000 e"
b00000000000000000000000000000000 f"
b00000000000000000000000000000000 g"
b00000000000000000000000000000000 h"
b00000000000000000000000000000000 i"
b00000000000000000000000000000000 j"
b00000000000000000000000000000000 k"
b00000000000000000000000000000000 l"
b00000000000000000000000000000000 m"
b00000000000000000000000000000000 n"
b00000000000000000000000000000000 o"
b00000000000000000000000000000000 p"
b00000000000000000000000000000000 q"
b00000000000000000000000000000000 r"
b00000000000000000000000000000000 s"
b00000000000000000000000000000000 t"
b00000000000000000000000000000000 u"
b00000000000000000000000000000000 v"
b00000000000000000000000000000000 w"
b00000000000000000000000000000000 x"
b00000000000000000000000000000000 y"
b00000000000000000000000000000000 z"
0{"
b00000000000000000000000000000000 |"
0}"
b00000000000000000000000000000000 !#
b00000000000000000000000000000000 "#
0##
b00000000000000000000000000000000 $#
0%#
b00000000000000000000000000000000 &#
b00000000000000000000000000000000 '#
0(#
b00000000000000000000000000000000 )#
0*#
b00000000000000000000000000000000 +#
b00000000000000000000000000000000 ,#
0-#
b00000000000000000000000000000000 .#
0/#
b00000000000000000000000000000000 0#
b00000000000000000000000000000000 1#
02#
b00000000000000000000000000000000 3#
04#
b00000000000000000000000000000000 5#
b00000000000000000000000000000000 6#
07#
b00000000000000000000000000000000 8#
09#
b00000000000000000000000000000000 :#
b00000000000000000000000000000000 ;#
0<#
b00000000000000000000000000000000 =#
0>#
b00000000000000000000000000000000 ?#
b00000000000000000000000000000000 @#
0A#
b00000000000000000000000000000000 B#
0C#
b00000000000000000000000000000000 D#
b00000000000000000000000000000000 E#
0F#
b00000000000000000000000000000000 G#
0H#
b00000000000000000000000000000000 I#
b00000000000000000000000000000000 J#
0K#
b00000000000000000000000000000000 L#
0M#
b00000000000000000000000000000000 N#
b00000000000000000000000000000000 O#
0P#
b00000000000000000000000000000000 Q#
0R#
b00000000000000000000000000000000 S#
b00000000000000000000000000000000 T#
0U#
b00000000000000000000000000000000 V#
0W#
b00000000000000000000000000000000 X#
b00000000000000000000000000000000 Y#
0Z#
b00000000000000000000000000000000 [#
0\#
b00000000000000000000000000000000 ]#
b00000000000000000000000000000000 ^#
0_#
b00000000000000000000000000000000 `#
0a#
b00000000000000000000000000000000 b#
b00000000000000000000000000000000 c#
0d#
b00000000000000000000000000000000 e#
0f#
b00000000000000000000000000000000 g#
b00000000000000000000000000000000 h#
0i#
b00000000000000000000000000000000 j#
0k#
b00000000000000000000000000000000 l#
b00000000000000000000000000000000 m#
0n#
b00000000000000000000000000000000 o#
0p#
b00000000000000000000000000000000 q#
b00000000000000000000000000000000 r#
0s#
b00000000000000000000000000000000 t#
0u#
b00000000000000000000000000000000 v#
b00000000000000000000000000000000 w#
0x#
b00000000000000000000000000000000 y#
0z#
b00000000000000000000000000000000 {#
b00000000000000000000000000000000 |#
0}#
b00000000000000000000000000000000 !$
0"$
b00000000000000000000000000000000 #$
b00000000000000000000000000000000 $$
0%$
b00000000000000000000000000000000 &$
0'$
b00000000000000000000000000000000 ($
b00000000000000000000000000000000 )$
0*$
b00000000000000000000000000000000 +$
0,$
b00000000000000000000000000000000 -$
b00000000000000000000000000000000 .$
0/$
b00000000000000000000000000000000 0$
01$
b00000000000000000000000000000000 2$
b00000000000000000000000000000000 3$
04$
b00000000000000000000000000000000 5$
06$
b00000000000000000000000000000000 7$
b00000000000000000000000000000000 8$
09$
b00000000000000000000000000000000 :$
0;$
b00000000000000000000000000000000 <$
b00000000000000000000000000000000 =$
0>$
b00000000000000000000000000000000 ?$
0@$
b00000000000000000000000000000000 A$
b00000000000000000000000000000000 B$
0C$
b00000000000000000000000000000000 D$
0E$
b00000000000000000000000000000000 F$
b00000000000000000000000000000000 G$
0H$
b00000000000000000000000000000000 I$
0J$
b00000000000000000000000000000000 K$
b00000000000000000000000000000000 L$
0M$
b00000000000000000000000000000000 N$
0O$
b00000000000000000000000000000000 P$
b00000000000000000000000000000000 Q$
0R$
b00000000000000000000000000000000 S$
0T$
b00000000000000000000000000000000 U$
b00000000000000000000000000000000 V$
0W$
b00000000000000000000000000000000 X$
0Y$
b00000000000000000000000000000000 Z$
b00000000000000000000000000000000 [$
0\$
0]$
0^$
1_$
1`$
b0000 a$
b00000000000000000000000000000000 b$
b00000000000000000000000000000000 c$
b00000000000000000000000000000000 d$
0e$
0f$
1g$
b00000000000000000000000000000000 h$
b00000000000000000000000000000000 i$
b00000000000000000001000000000000 j$
b00000000000000000000000000000000 k$
0l$
0m$
b00 n$
b00000000000000000000000000000000 o$
0p$
0q$
b00000000000000000001000000000000 r$
b00 s$
0t$
0u$
1v$
1w$
b00000000000000000000000000000000 x$
b00000000000000000000000000000000 y$
b00000000000000000000000000000000 z$
0{$
b00000000000000000000000000000000 |$
0}$
0!%
0"%
b00 #%
b00000000000000000000000000000000 $%
b00 %%
b0000000000000000000000000000000000000000000000000000000000000000 &%
0'%
0(%
0)%
b00000000000000000000000000000000 *%
b00000000000000000001000000000000 +%
b00000000000000000001000000000000 ,%
0-%
0.%
0/%
b00000000000000000000000000000000 0%
b00000000000000000001000000000000 1%
b00000000000000000001000000000000 2%
03%
bZZZZZZZZZZZZZZZZZZZZZZZZZZZZZZZZ 4%
05%
b00000000000000000000000000000000 6%
b00000000000000000000000000000000 7%
08%
bZZZZZZZZZZZZZZZZZZZZZZZZZZZZZZZZ 9%
0:%
b00000000000000000000000000000000 ;%
b00000000000000000000000000000000 <%
0=%
b00000000000000000000000000000000 >%
0?%
b00000000000000000000000000000000 @%
b00000000000000000000000000000000 A%
0B%
b00000000000000000000000000000000 C%
b00000000000000000000000000000000 D%
b00000 E%
b001 F%
b00000000000000000000000000000000 G%
b001 H%
b00000000000000000000000000000000 I%
b000000000000000000000000000000000 J%
b000000000000000000000000000000000 K%
b000000000000000000000000000000000 L%
b000000000000000000000000000000000 M%
b000000000000000000000000000000000 N%
b000000000000000000000000000000000 O%
0P%
b00000000000000000000000000000000 Q%
0R%
1S%
1T%
bUUUUUUUUUUUUUUUUUUUUUUUUUUUUUUUU U%
b00000000000000000000000000000000 V%
b00000000000000000000000000000000 W%
b0 X%
1Y%
#5000000
0!
0"
#10000000
1!
1"
b001 2
#15000000
0!
0"
#20000000
1!
1"
b00000001100100000010001000000011 ,
0/
11
b000 2
13
04
b00000001100100000010001000000011 5
1X
10"
1R"
1{"
1##
1(#
1-#
12#
17#
1<#
1A#
1F#
1K#
1P#
1U#
1Z#
1_#
1d#
1i#
1n#
1s#
1x#
1}#
1%$
1*$
1/$
14$
19$
1>$
1C$
1H$
1M$
1R$
1W$
1\$
0`$
b00000001100100000010001000000011 c$
1{$
1'%
1-%
13%
18%
1=%
1B%
1P%
0T%
b00000001100100000010001000000011 V%
b00000001100100000010001000000011 W%
0Y%
#25000000
0!
0"
#30000000
1!
1"
b001 2
#35000000
0!
0"
#40000000
1!
1"
b00000000000000000001000000000000 +
01
b000 2
03
b00000000000000000001000000000000 7
0X
00"
0R"
0{"
0##
0(#
0-#
02#
07#
0<#
0A#
0F#
0K#
0P#
0U#
0Z#
0_#
0d#
0i#
0n#
0s#
0x#
0}#
0%$
0*$
0/$
04$
09$
0>$
0C$
0H$
0M$
0R$
0W$
0\$
0g$
b00000000000000000001000000000000 h$
bZZZZZZZZZZZZZZZZZZZZZZZZZZZZZZZZ o$
b01 s$
0v$
b00000000000000000001000000000000 x$
bZZZZZZZZZZZZZZZZZZZZZZZZZZZZZZZZ y$
0{$
bZZZZZZZZZZZZZZZZZZZZZZZZZZZZZZZZ |$
0'%
0-%
03%
08%
0=%
0B%
0P%
b00000000000000000001000000000000 Q%
b1000000000000 X%
#45000000
0!
0"
#50000000
1!
1"
b001 2
#55000000
0!
0"
#60000000
1!
1"
b00000000000000000000000001100111 ,
11
b000 2
13
b00000000000000000000000001100111 5
1X
10"
1R"
1{"
1##
1(#
1-#
12#
17#
1<#
1A#
1F#
1K#
1P#
1U#
1Z#
1_#
1d#
1i#
1n#
1s#
1x#
1}#
1%$
1*$
1/$
14$
19$
1>$
1C$
1H$
1M$
1R$
1W$
1\$
b00000000000000000000000001100111 c$
1{$
1'%
1-%
13%
18%
1=%
1B%
1P%
b00000000000000000000000001100111 V%
b00000000000000000000000001100111 W%
#65000000
0!
0"
#70000000
1!
1"
b001 2
#75000000
0!
0"
