bck/results.vcd
$date
  Sun Mar 05 09:26:04 2017
$end
$version
  GHDL v0
$end
$timescale
  1 fs
$end
$var reg 1 ! l_clk_100 $end
$scope module fpga $end
$var reg 1 " i_clk_100 $end
$var reg 1 # c_br $end
$var reg 1 $ c_wr $end
$var reg 1 % c_ack $end
$var reg 1 & c_std $end
$var reg 1 ' c_rst $end
$var reg 32 ( c_adr[31:0] $end
$var reg 32 ) c_wdt[31:0] $end
$var reg 32 * c_rdt[31:0] $end
$var reg 32 + r_addr[31:0] $end
$var reg 32 , r_dati[31:0] $end
$var reg 32 - r_dato[31:0] $end
$var reg 1 . r_we $end
$var reg 1 / r_rdy $end
$var reg 1 0 r_ads $end
$var reg 1 1 l_clk $end
$var reg 3 2 l_clk_cnt[2:0] $end
$scope module cpu $end
$var reg 1 3 i_clk $end
$var reg 1 4 i_rdy $end
$var reg 32 5 i_rdt[31:0] $end
$var reg 1 6 q_wr $end
$var reg 32 7 q_adr[31:0] $end
$var reg 32 8 q_wdt[31:0] $end
$var reg 32 9 c_imm[31:0] $end
$var reg 5 : c_alufc[4:0] $end
$var reg 5 ; c_reg[4:0] $end
$var reg 1 < c_locka $end
$var reg 1 = c_lockb $end
$var reg 1 > c_lockc $end
$var reg 1 ? c_rbus $end
$var reg 1 @ c_busr $end
$var reg 1 A c_pcbus $end
$var reg 1 B c_buspc $end
$var reg 1 C c_bussel $end
$var reg 1 D c_inc_4 $end
$var reg 1 E c_rdir $end
$var reg 1 F c_stall $end
$var reg 32 G f_pc[31:0] $end
$var reg 32 H r_out[31:0] $end
$var reg 32 I r_ir[31:0] $end
$var reg 32 J r_pc[31:0] $end
$var reg 32 K r_a[31:0] $end
$var reg 32 L r_b[31:0] $end
$var reg 32 M r_ci[31:0] $end
$var reg 32 N r_co[31:0] $end
$var reg 3 O a_cc[2:0] $end
$var reg 32 P l_busa[31:0] $end
$var reg 32 Q l_busb[31:0] $end
$var reg 32 R l_busc[31:0] $end
$scope module cu $end
$var reg 1 S i_clk $end
$var reg 1 T i_stall $end
$var reg 3 U i_cc[2:0] $end
$var reg 32 V i_instr[31:0] $end
$var reg 32 W q_imm[31:0] $end
$var reg 5 X q_alufc[4:0] $end
$var reg 5 Y q_reg[4:0] $end
$var reg 1 Z q_rdir $end
$var reg 1 [ q_locka $end
$var reg 1 \ q_lockb $end
$var reg 1 ] q_lockc $end
$var reg 1 ^ q_rbus $end
$var reg 1 _ q_busr $end
$var reg 1 ` q_pcbus $end
$var reg 1 a q_buspc $end
$var reg 1 b q_bussel $end
$var reg 1 c q_pc_inc_4 $end
$var reg 33 d d_type[32:0] $end
$var reg 6 e d_format[5:0] $end
$var reg 9 f d_func[8:0] $end
$var reg 1 g c_inc $end
$var reg 1 h c_rst $end
$var reg 8 i c_cycle[7:0] $end
$var reg 5 j r_reg[4:0] $end
$var reg 5 k r_alufc[4:0] $end
$var reg 1 l r_immout $end
$var reg 1 m r_locka $end
$var reg 1 n r_lockb $end
$var reg 1 o r_lockc $end
$var reg 1 p r_rbus $end
$var reg 1 q r_busr $end
$var reg 1 r r_pcbus $end
$var reg 1 s r_buspc $end
$var reg 1 t r_bussel $end
$var reg 1 u r_inc $end
$var reg 1 v r_rst $end
$var reg 32 w l_imm[31:0] $end
$scope module it_dec $end
$var reg 7 x i_instr[6:0] $end
$var reg 33 y q_type[32:0] $end
$var reg 1 z l_valid32 $end
$upscope $end
$scope module ifo_dec $end
$var reg 33 { i_type[32:0] $end
$var reg 6 | q_format[5:0] $end
$upscope $end
$scope module ifu_dec $end
$var reg 32 } i_instr[31:0] $end
$var reg 6 !" i_format[5:0] $end
$var reg 9 "" q_func[8:0] $end
$var reg 8 #" l_func[7:0] $end
$var reg 1 $" l_ext $end
$upscope $end
$scope module cg $end
$var reg 1 %" i_clk $end
$var reg 1 &" i_inc $end
$var reg 1 '" i_rst $end
$var reg 8 (" q_cycle[7:0] $end
$var reg 8 )" l_cycle[7:0] $end
$upscope $end
$scope module rcl $end
$var reg 32 *" i_instr[31:0] $end
$var reg 33 +" i_type[32:0] $end
$var reg 9 ," i_func[8:0] $end
$var reg 8 -" i_cycle[7:0] $end
$var reg 3 ." i_cc[2:0] $end
$var reg 5 /" q_reg[4:0] $end
$var reg 5 0" q_alufc[4:0] $end
$var reg 1 1" q_immout $end
$var reg 1 2" q_locka $end
$var reg 1 3" q_lockb $end
$var reg 1 4" q_lockc $end
$var reg 1 5" q_rbus $end
$var reg 1 6" q_busr $end
$var reg 1 7" q_pcbus $end
$var reg 1 8" q_buspc $end
$var reg 1 9" q_bussel $end
$var reg 1 :" q_cycle_inc $end
$var reg 1 ;" q_cycle_rst $end
$var reg 1 <" q_pc_inc_4 $end
$var reg 5 =" l_func_alu[4:0] $end
$var reg 5 >" l_inst_alu[4:0] $end
$var reg 1 ?" l_alusel $end
$var reg 1 @" l_bt $end
$var reg 5 A" l_reg[4:0] $end
$var reg 1 B" l_rst $end
$upscope $end
$upscope $end
$scope module rf $end
$var reg 1 C" i_clk $end
$var reg 1 D" i_we $end
$var reg 1 E" i_oe $end
$var reg 5 F" i_reg[4:0] $end
$var reg 32 G" i_in[31:0] $end
$var reg 32 H" q_out[31:0] $end
$var reg 32 I" l_write[31:0] $end
$var reg 32 J" l_writes[31:0] $end
$var reg 32 K" l_r0[31:0] $end
$var reg 32 L" l_r1[31:0] $end
$var reg 32 M" l_r2[31:0] $end
$var reg 32 N" l_r3[31:0] $end
$var reg 32 O" l_r4[31:0] $end
$var reg 32 P" l_r5[31:0] $end
$var reg 32 Q" l_r6[31:0] $end
$var reg 32 R" l_r7[31:0] $end
$var reg 32 S" l_r8[31:0] $end
$var reg 32 T" l_r9[31:0] $end
$var reg 32 U" l_r10[31:0] $end
$var reg 32 V" l_r11[31:0] $end
$var reg 32 W" l_r12[31:0] $end
$var reg 32 X" l_r13[31:0] $end
$var reg 32 Y" l_r14[31:0] $end
$var reg 32 Z" l_r15[31:0] $end
$var reg 32 [" l_r16[31:0] $end
$var reg 32 \" l_r17[31:0] $end
$var reg 32 ]" l_r18[31:0] $end
$var reg 32 ^" l_r19[31:0] $end
$var reg 32 _" l_r20[31:0] $end
$var reg 32 `" l_r21[31:0] $end
$var reg 32 a" l_r22[31:0] $end
$var reg 32 b" l_r23[31:0] $end
$var reg 32 c" l_r24[31:0] $end
$var reg 32 d" l_r25[31:0] $end
$var reg 32 e" l_r26[31:0] $end
$var reg 32 f" l_r27[31:0] $end
$var reg 32 g" l_r28[31:0] $end
$var reg 32 h" l_r29[31:0] $end
$var reg 32 i" l_r30[31:0] $end
$var reg 32 j" l_r31[31:0] $end
$var reg 32 k" l_out[31:0] $end
$scope module r1 $end
$var reg 1 l" i_clk $end
$var reg 32 m" i_d[31:0] $end
$var reg 1 n" i_w $end
$var reg 32 o" q_d[31:0] $end
$var reg 32 p" l_content[31:0] $end
$upscope $end
$scope module r2 $end
$var reg 1 q" i_clk $end
$var reg 32 r" i_d[31:0] $end
$var reg 1 s" i_w $end
$var reg 32 t" q_d[31:0] $end
$var reg 32 u" l_content[31:0] $end
$upscope $end
$scope module r3 $end
$var reg 1 v" i_clk $end
$var reg 32 w" i_d[31:0] $end
$var reg 1 x" i_w $end
$var reg 32 y" q_d[31:0] $end
$var reg 32 z" l_content[31:0] $end
$upscope $end
$scope module r4 $end
$var reg 1 {" i_clk $end
$var reg 32 |" i_d[31:0] $end
$var reg 1 }" i_w $end
$var reg 32 !# q_d[31:0] $end
$var reg 32 "# l_content[31:0] $end
$upscope $end
$scope module r5 $end
$var reg 1 ## i_clk $end
$var reg 32 $# i_d[31:0] $end
$var reg 1 %# i_w $end
$var reg 32 &# q_d[31:0] $end
$var reg 32 '# l_content[31:0] $end
$upscope $end
$scope module r6 $end
$var reg 1 (# i_clk $end
$var reg 32 )# i_d[31:0] $end
$var reg 1 *# i_w $end
$var reg 32 +# q_d[31:0] $end
$var reg 32 ,# l_content[31:0] $end
$upscope $end
$scope module r7 $end
$var reg 1 -# i_clk $end
$var reg 32 .# i_d[31:0] $end
$var reg 1 /# i_w $end
$var reg 32 0# q_d[31:0] $end
$var reg 32 1# l_content[31:0] $end
$upscope $end
$scope module r8 $end
$var reg 1 2# i_clk $end
$var reg 32 3# i_d[31:0] $end
$var reg 1 4# i_w $end
$var reg 32 5# q_d[31:0] $end
$var reg 32 6# l_content[31:0] $end
$upscope $end
$scope module r9 $end
$var reg 1 7# i_clk $end
$var reg 32 8# i_d[31:0] $end
$var reg 1 9# i_w $end
$var reg 32 :# q_d[31:0] $end
$var reg 32 ;# l_content[31:0] $end
$upscope $end
$scope module r10 $end
$var reg 1 <# i_clk $end
$var reg 32 =# i_d[31:0] $end
$var reg 1 ># i_w $end
$var reg 32 ?# q_d[31:0] $end
$var reg 32 @# l_content[31:0] $end
$upscope $end
$scope module r11 $end
$var reg 1 A# i_clk $end
$var reg 32 B# i_d[31:0] $end
$var reg 1 C# i_w $end
$var reg 32 D# q_d[31:0] $end
$var reg 32 E# l_content[31:0] $end
$upscope $end
$scope module r12 $end
$var reg 1 F# i_clk $end
$var reg 32 G# i_d[31:0] $end
$var reg 1 H# i_w $end
$var reg 32 I# q_d[31:0] $end
$var reg 32 J# l_content[31:0] $end
$upscope $end
$scope module r13 $end
$var reg 1 K# i_clk $end
$var reg 32 L# i_d[31:0] $end
$var reg 1 M# i_w $end
$var reg 32 N# q_d[31:0] $end
$var reg 32 O# l_content[31:0] $end
$upscope $end
$scope module r14 $end
$var reg 1 P# i_clk $end
$var reg 32 Q# i_d[31:0] $end
$var reg 1 R# i_w $end
$var reg 32 S# q_d[31:0] $end
$var reg 32 T# l_content[31:0] $end
$upscope $end
$scope module r15 $end
$var reg 1 U# i_clk $end
$var reg 32 V# i_d[31:0] $end
$var reg 1 W# i_w $end
$var reg 32 X# q_d[31:0] $end
$var reg 32 Y# l_content[31:0] $end
$upscope $end
$scope module r16 $end
$var reg 1 Z# i_clk $end
$var reg 32 [# i_d[31:0] $end
$var reg 1 \# i_w $end
$var reg 32 ]# q_d[31:0] $end
$var reg 32 ^# l_content[31:0] $end
$upscope $end
$scope module r17 $end
$var reg 1 _# i_clk $end
$var reg 32 `# i_d[31:0] $end
$var reg 1 a# i_w $end
$var reg 32 b# q_d[31:0] $end
$var reg 32 c# l_content[31:0] $end
$upscope $end
$scope module r18 $end
$var reg 1 d# i_clk $end
$var reg 32 e# i_d[31:0] $end
$var reg 1 f# i_w $end
$var reg 32 g# q_d[31:0] $end
$var reg 32 h# l_content[31:0] $end
$upscope $end
$scope module r19 $end
$var reg 1 i# i_clk $end
$var reg 32 j# i_d[31:0] $end
$var reg 1 k# i_w $end
$var reg 32 l# q_d[31:0] $end
$var reg 32 m# l_content[31:0] $end
$upscope $end
$scope module r20 $end
$var reg 1 n# i_clk $end
$var reg 32 o# i_d[31:0] $end
$var reg 1 p# i_w $end
$var reg 32 q# q_d[31:0] $end
$var reg 32 r# l_content[31:0] $end
$upscope $end
$scope module r21 $end
$var reg 1 s# i_clk $end
$var reg 32 t# i_d[31:0] $end
$var reg 1 u# i_w $end
$var reg 32 v# q_d[31:0] $end
$var reg 32 w# l_content[31:0] $end
$upscope $end
$scope module r22 $end
$var reg 1 x# i_clk $end
$var reg 32 y# i_d[31:0] $end
$var reg 1 z# i_w $end
$var reg 32 {# q_d[31:0] $end
$var reg 32 |# l_content[31:0] $end
$upscope $end
$scope module r23 $end
$var reg 1 }# i_clk $end
$var reg 32 !$ i_d[31:0] $end
$var reg 1 "$ i_w $end
$var reg 32 #$ q_d[31:0] $end
$var reg 32 $$ l_content[31:0] $end
$upscope $end
$scope module r24 $end
$var reg 1 %$ i_clk $end
$var reg 32 &$ i_d[31:0] $end
$var reg 1 '$ i_w $end
$var reg 32 ($ q_d[31:0] $end
$var reg 32 )$ l_content[31:0] $end
$upscope $end
$scope module r25 $end
$var reg 1 *$ i_clk $end
$var reg 32 +$ i_d[31:0] $end
$var reg 1 ,$ i_w $end
$var reg 32 -$ q_d[31:0] $end
$var reg 32 .$ l_content[31:0] $end
$upscope $end
$scope module r26 $end
$var reg 1 /$ i_clk $end
$var reg 32 0$ i_d[31:0] $end
$var reg 1 1$ i_w $end
$var reg 32 2$ q_d[31:0] $end
$var reg 32 3$ l_content[31:0] $end
$upscope $end
$scope module r27 $end
$var reg 1 4$ i_clk $end
$var reg 32 5$ i_d[31:0] $end
$var reg 1 6$ i_w $end
$var reg 32 7$ q_d[31:0] $end
$var reg 32 8$ l_content[31:0] $end
$upscope $end
$scope module r28 $end
$var reg 1 9$ i_clk $end
$var reg 32 :$ i_d[31:0] $end
$var reg 1 ;$ i_w $end
$var reg 32 <$ q_d[31:0] $end
$var reg 32 =$ l_content[31:0] $end
$upscope $end
$scope module r29 $end
$var reg 1 >$ i_clk $end
$var reg 32 ?$ i_d[31:0] $end
$var reg 1 @$ i_w $end
$var reg 32 A$ q_d[31:0] $end
$var reg 32 B$ l_content[31:0] $end
$upscope $end
$scope module r30 $end
$var reg 1 C$ i_clk $end
$var reg 32 D$ i_d[31:0] $end
$var reg 1 E$ i_w $end
$var reg 32 F$ q_d[31:0] $end
$var reg 32 G$ l_content[31:0] $end
$upscope $end
$scope module r31 $end
$var reg 1 H$ i_clk $end
$var reg 32 I$ i_d[31:0] $end
$var reg 1 J$ i_w $end
$var reg 32 K$ q_d[31:0] $end
$var reg 32 L$ l_content[31:0] $end
$upscope $end
$upscope $end
$scope module ifu $end
$var reg 1 M$ i_clk $end
$var reg 1 N$ i_inc_4 $end
$var reg 1 O$ i_ldpc $end
$var reg 1 P$ i_rdir $end
$var reg 1 Q$ i_rdy $end
$var reg 32 R$ i_pc[31:0] $end
$var reg 32 S$ i_data[31:0] $end
$var reg 1 T$ q_wr $end
$var reg 1 U$ q_stall $end
$var reg 1 V$ q_ads $end
$var reg 32 W$ q_adr[31:0] $end
$var reg 32 X$ q_ir[31:0] $end
$var reg 32 Y$ q_pc[31:0] $end
$var reg 1 Z$ s_w $end
$var reg 1 [$ s_sh1 $end
$var reg 2 \$ s_amt[1:0] $end
$var reg 32 ]$ s_d[31:0] $end
$var reg 1 ^$ pc_inc_4 $end
$var reg 1 _$ a_inc_4 $end
$var reg 32 `$ a_ar[31:0] $end
$var reg 2 a$ l_t[1:0] $end
$var reg 1 b$ l_wr $end
$var reg 1 c$ l_ads $end
$var reg 1 d$ l_stall $end
$var reg 32 e$ l_adr[31:0] $end
$scope module ir $end
$var reg 1 f$ i_clk $end
$var reg 32 g$ i_d[31:0] $end
$var reg 1 h$ i_w $end
$var reg 1 i$ i_rst $end
$var reg 1 j$ i_shift1 $end
$var reg 2 k$ q_amt[1:0] $end
$var reg 32 l$ q_d[31:0] $end
$var reg 2 m$ l_amt[1:0] $end
$var reg 64 n$ l_content[63:0] $end
$upscope $end
$scope module pc $end
$var reg 1 o$ i_clk $end
$var reg 1 p$ i_inc_4 $end
$var reg 1 q$ i_ld $end
$var reg 32 r$ i_in[31:0] $end
$var reg 32 s$ q_pc[31:0] $end
$var reg 32 t$ l_pc[31:0] $end
$upscope $end
$scope module ar $end
$var reg 1 u$ i_clk $end
$var reg 1 v$ i_inc_4 $end
$var reg 1 w$ i_ld $end
$var reg 32 x$ i_in[31:0] $end
$var reg 32 y$ q_ar[31:0] $end
$var reg 32 z$ l_ar[31:0] $end
$upscope $end
$upscope $end
$scope module reg_a $end
$var reg 1 {$ i_clk $end
$var reg 32 |$ i_d[31:0] $end
$var reg 1 }$ i_w $end
$var reg 32 !% q_d[31:0] $end
$var reg 32 "% l_content[31:0] $end
$upscope $end
$scope module reg_b $end
$var reg 1 #% i_clk $end
$var reg 32 $% i_d[31:0] $end
$var reg 1 %% i_w $end
$var reg 32 &% q_d[31:0] $end
$var reg 32 '% l_content[31:0] $end
$upscope $end
$scope module reg_c $end
$var reg 1 (% i_clk $end
$var reg 32 )% i_d[31:0] $end
$var reg 1 *% i_w $end
$var reg 32 +% q_d[31:0] $end
$var reg 32 ,% l_content[31:0] $end
$upscope $end
$scope module alu_t $end
$var reg 1 -% i_clk $end
$var reg 32 .% i_a[31:0] $end
$var reg 32 /% i_b[31:0] $end
$var reg 5 0% i_fc[4:0] $end
$var reg 3 1% q_cc[2:0] $end
$var reg 32 2% q_o[31:0] $end
$var reg 3 3% l_cc[2:0] $end
$var reg 32 4% l_out[31:0] $end
$var reg 33 5% l_alu[32:0] $end
$var reg 33 6% l_shift[32:0] $end
$var reg 33 7% u_a[32:0] $end
$var reg 33 8% u_b[32:0] $end
$var reg 33 9% s_a[32:0] $end
$var reg 33 :% s_b[32:0] $end
$upscope $end
$upscope $end
$scope module ram_t $end
$var reg 1 ;% i_clk $end
$var reg 32 <% i_addr[31:0] $end
$var reg 1 =% i_we $end
$var reg 1 >% i_ads $end
$var reg 1 ?% q_rdy $end
$var reg 32 @% i_data[31:0] $end
$var reg 32 A% q_data[31:0] $end
$comment ram is not handled $end
$var reg 32 B% l_data[31:0] $end
$var integer 32 C% l_iadr $end
$var reg 1 D% l_rdy $end
$upscope $end
$upscope $end
$enddefinitions $end
#0
1!
1"
U#
U$
U%
U&
U'
bUUUUUUUUUUUUUUUUUUUUUUUUUUUUUUUU (
bUUUUUUUUUUUUUUUUUUUUUUUUUUUUUUUU )
bUUUUUUUUUUUUUUUUUUUUUUUUUUUUUUUU *
b00000000000000000000000000000000 +
b00000000000000000000000000000000 ,
bUUUUUUUUUUUUUUUUUUUUUUUUUUUUUUUU -
0.
1/
10
01
b000 2
03
14
b00000000000000000000000000000000 5
06
b00000000000000000000000000000000 7
bUUUUUUUUUUUUUUUUUUUUUUUUUUUUUUUU 8
bZZZZZZZZZZZZZZZZZZZZZZZZZZZZZZZZ 9
b00000 :
b00000 ;
0<
0=
0>
0?
0@
0A
0B
0C
0D
1E
0F
bUUUUUUUUUUUUUUUUUUUUUUUUUUUUUUUU G
bZZZZZZZZZZZZZZZZZZZZZZZZZZZZZZZZ H
b00000000000000000000000000000000 I
b00000000000000000001000000000000 J
b00000000000000000000000000000000 K
b00000000000000000000000000000000 L
b00000000000000000000000000000000 M
b00000000000000000000000000000000 N
b001 O
bZZZZZZZZZZZZZZZZZZZZZZZZZZZZZZZZ P
bZZZZZZZZZZZZZZZZZZZZZZZZZZZZZZZZ Q
b00000000000000000000000000000000 R
0S
0T
b001 U
b00000000000000000000000000000000 V
bZZZZZZZZZZZZZZZZZZZZZZZZZZZZZZZZ W
b00000 X
b00000 Y
1Z
0[
0\
0]
0^
0_
0`
0a
0b
0c
b000000000000000000000000000000000 d
b000000 e
b000000001 f
0g
0h
b00000001 i
b00000 j
b00000 k
0l
0m
0n
0o
0p
0q
0r
0s
0t
0u
1v
b00000000000000000000000000000000 w
b0000000 x
b000000000000000000000000000000000 y
0z
b000000000000000000000000000000000 {
b000000 |
b00000000000000000000000000000000 }
b000000 !"
b000000001 ""
b00000001 #"
0$"
0%"
0&"
0'"
b00000001 ("
b00000001 )"
b00000000000000000000000000000000 *"
b000000000000000000000000000000000 +"
b000000001 ,"
b00000001 -"
b001 ."
b00000 /"
b00000 0"
01"
02"
03"
04"
05"
06"
07"
08"
09"
0:"
1;"
0<"
b00010 ="
b00000 >"
0?"
0@"
b00000 A"
1B"
0C"
0D"
0E"
b00000 F"
b00000000000000000000000000000000 G"
bZZZZZZZZZZZZZZZZZZZZZZZZZZZZZZZZ H"
b00000000000000000000000000000000 I"
b00000000000000000000000000000001 J"
b00000000000000000000000000000000 K"
b00000000000000000000000000000000 L"
b00000000000000000000000000000000 M"
b00000000000000000000000000000000 N"
b00000000000000000000000000000000 O"
b00000000000000000000000000000000 P"
b00000000000000000000000000000000 Q"
b00000000000000000000000000000000 R"
b00000000000000000000000000000000 S"
b00000000000000000000000000000000 T"
b00000000000000000000000000000000 U"
b00000000000000000000000000000000 V"
b00000000000000000000000000000000 W"
b00000000000000000000000000000000 X"
b00000000000000000000000000000000 Y"
b00000000000000000000000000000000 Z"
b00000000000000000000000000000000 ["
b00000000000000000000000000000000 \"
b00000000000000000000000000000000 ]"
b00000000000000000000000000000000 ^"
b00000000000000000000000000000000 _"
b00000000000000000000000000000000 `"
b00000000000000000000000000000000 a"
b00000000000000000000000000000000 b"
b00000000000000000000000000000000 c"
b00000000000000000000000000000000 d"
b00000000000000000000000000000000 e"
b00000000000000000000000000000000 f"
b00000000000000000000000000000000 g"
b00000000000000000000000000000000 h"
b00000000000000000000000000000000 i"
b00000000000000000000000000000000 j"
b00000000000000000000000000000000 k"
0l"
b00000000000000000000000000000000 m"
0n"
b00000000000000000000000000000000 o"
b00000000000000000000000000000000 p"
0q"
b00000000000000000000000000000000 r"
0s"
b00000000000000000000000000000000 t"
b00000000000000000000000000000000 u"
0v"
b00000000000000000000000000000000 w"
0x"
b00000000000000000000000000000000 y"
b00000000000000000000000000000000 z"
0{"
b00000000000000000000000000000000 |"
0}"
b00000000000000000000000000000000 !#
b00000000000000000000000000000000 "#
0##
b00000000000000000000000000000000 $#
0%#
b00000000000000000000000000000000 &#
b00000000000000000000000000000000 '#
0(#
b00000000000000000000000000000000 )#
0*#
b00000000000000000000000000000000 +#
b00000000000000000000000000000000 ,#
0-#
b00000000000000000000000000000000 .#
0/#
b00000000000000000000000000000000 0#
b00000000000000000000000000000000 1#
02#
b00000000000000000000000000000000 3#
04#
b00000000000000000000000000000000 5#
b00000000000000000000000000000000 6#
07#
b00000000000000000000000000000000 8#
09#
b00000000000000000000000000000000 :#
b00000000000000000000000000000000 ;#
0<#
b00000000000000000000000000000000 =#
0>#
b00000000000000000000000000000000 ?#
b00000000000000000000000000000000 @#
0A#
b00000000000000000000000000000000 B#
0C#
b00000000000000000000000000000000 D#
b00000000000000000000000000000000 E#
0F#
b00000000000000000000000000000000 G#
0H#
b00000000000000000000000000000000 I#
b00000000000000000000000000000000 J#
0K#
b00000000000000000000000000000000 L#
0M#
b00000000000000000000000000000000 N#
b00000000000000000000000000000000 O#
0P#
b00000000000000000000000000000000 Q#
0R#
b00000000000000000000000000000000 S#
b00000000000000000000000000000000 T#
0U#
b00000000000000000000000000000000 V#
0W#
b00000000000000000000000000000000 X#
b00000000000000000000000000000000 Y#
0Z#
b00000000000000000000000000000000 [#
0\#
b00000000000000000000000000000000 ]#
b00000000000000000000000000000000 ^#
0_#
b00000000000000000000000000000000 `#
0a#
b00000000000000000000000000000000 b#
b00000000000000000000000000000000 c#
0d#
b00000000000000000000000000000000 e#
0f#
b00000000000000000000000000000000 g#
b00000000000000000000000000000000 h#
0i#
b00000000000000000000000000000000 j#
0k#
b00000000000000000000000000000000 l#
b00000000000000000000000000000000 m#
0n#
b00000000000000000000000000000000 o#
0p#
b00000000000000000000000000000000 q#
b00000000000000000000000000000000 r#
0s#
b00000000000000000000000000000000 t#
0u#
b00000000000000000000000000000000 v#
b00000000000000000000000000000000 w#
0x#
b00000000000000000000000000000000 y#
0z#
b00000000000000000000000000000000 {#
b00000000000000000000000000000000 |#
0}#
b00000000000000000000000000000000 !$
0"$
b00000000000000000000000000000000 #$
b00000000000000000000000000000000 $$
0%$
b00000000000000000000000000000000 &$
0'$
b00000000000000000000000000000000 ($
b00000000000000000000000000000000 )$
0*$
b00000000000000000000000000000000 +$
0,$
b00000000000000000000000000000000 -$
b00000000000000000000000000000000 .$
0/$
b00000000000000000000000000000000 0$
01$
b00000000000000000000000000000000 2$
b00000000000000000000000000000000 3$
04$
b00000000000000000000000000000000 5$
06$
b00000000000000000000000000000000 7$
b00000000000000000000000000000000 8$
09$
b00000000000000000000000000000000 :$
0;$
b00000000000000000000000000000000 <$
b00000000000000000000000000000000 =$
0>$
b00000000000000000000000000000000 ?$
0@$
b00000000000000000000000000000000 A$
b00000000000000000000000000000000 B$
0C$
b00000000000000000000000000000000 D$
0E$
b00000000000000000000000000000000 F$
b00000000000000000000000000000000 G$
0H$
b00000000000000000000000000000000 I$
0J$
b00000000000000000000000000000000 K$
b00000000000000000000000000000000 L$
0M$
0N$
0O$
1P$
1Q$
bUUUUUUUUUUUUUUUUUUUUUUUUUUUUUUUU R$
b00000000000000000000000000000000 S$
0T$
0U$
1V$
b00000000000000000000000000000000 W$
b00000000000000000000000000000000 X$
b00000000000000000001000000000000 Y$
0Z$
0[$
b00 \$
b00000000000000000000000000000000 ]$
0^$
0_$
b00000000000000000001000000000000 `$
b00 a$
0b$
1c$
1d$
b00000000000000000000000000000000 e$
0f$
b00000000000000000000000000000000 g$
0h$
0i$
0j$
b00 k$
b00000000000000000000000000000000 l$
b00 m$
b0000000000000000000000000000000000000000000000000000000000000000 n$
0o$
0p$
0q$
bUUUUUUUUUUUUUUUUUUUUUUUUUUUUUUUU r$
b00000000000000000001000000000000 s$
b00000000000000000001000000000000 t$
0u$
0v$
0w$
bUUUUUUUUUUUUUUUUUUUUUUUUUUUUUUUU x$
b00000000000000000001000000000000 y$
b00000000000000000001000000000000 z$
0{$
bZZZZZZZZZZZZZZZZZZZZZZZZZZZZZZZZ |$
0}$
b00000000000000000000000000000000 !%
b00000000000000000000000000000000 "%
0#%
bZZZZZZZZZZZZZZZZZZZZZZZZZZZZZZZZ $%
0%%
b00000000000000000000000000000000 &%
b00000000000000000000000000000000 '%
0(%
b00000000000000000000000000000000 )%
0*%
b00000000000000000000000000000000 +%
b00000000000000000000000000000000 ,%
0-%
b00000000000000000000000000000000 .%
b00000000000000000000000000000000 /%
b00000 0%
b001 1%
b00000000000000000000000000000000 2%
b001 3%
b00000000000000000000000000000000 4%
b000000000000000000000000000000000 5%
b000000000000000000000000000000000 6%
b000000000000000000000000000000000 7%
b000000000000000000000000000000000 8%
b000000000000000000000000000000000 9%
b000000000000000000000000000000000 :%
0;%
b00000000000000000000000000000000 <%
0=%
1>%
1?%
bUUUUUUUUUUUUUUUUUUUUUUUUUUUUUUUU @%
b00000000000000000000000000000000 A%
b00000000000000000000000000000000 B%
b0 C%
1D%
#5000000
0!
0"
#10000000
1!
1"
b001 2
#15000000
0!
0"
#20000000
1!
1"
b00000000000000000001000000000000 +
b00000000010100000000000100010011 ,
0/
11
b000 2
13
04
b00000000010100000000000100010011 5
b00000000000000000001000000000000 7
1S
1%"
1C"
1l"
1q"
1v"
1{"
1##
1(#
1-#
12#
17#
1<#
1A#
1F#
1K#
1P#
1U#
1Z#
1_#
1d#
1i#
1n#
1s#
1x#
1}#
1%$
1*$
1/$
14$
19$
1>$
1C$
1H$
1M$
0Q$
b00000000010100000000000100010011 S$
0V$
b00000000000000000001000000000000 W$
bZZZZZZZZZZZZZZZZZZZZZZZZZZZZZZZZ ]$
b01 a$
0c$
b00000000000000000001000000000000 e$
1f$
bZZZZZZZZZZZZZZZZZZZZZZZZZZZZZZZZ g$
1o$
1u$
1{$
1#%
1(%
1-%
1;%
b00000000000000000001000000000000 <%
0?%
b00000000010100000000000100010011 A%
b00000000010100000000000100010011 B%
b1000000000000 C%
0D%
#25000000
0!
0"
#30000000
1!
1"
b001 2
#35000000
0!
0"
#40000000
1!
1"
b00000000000000000000000001100111 ,
01
b000 2
03
b00000000000000000000000001100111 5
0S
0%"
0C"
0l"
0q"
0v"
0{"
0##
0(#
0-#
02#
07#
0<#
0A#
0F#
0K#
0P#
0U#
0Z#
0_#
0d#
0i#
0n#
0s#
0x#
0}#
0%$
0*$
0/$
04$
09$
0>$
0C$
0H$
0M$
b00000000000000000000000001100111 S$
0f$
0o$
0u$
0{$
0#%
0(%
0-%
0;%
b00000000000000000000000001100111 A%
b00000000000000000000000001100111 B%
#45000000
0!
0"
#50000000
1!
1"
b001 2
#55000000
0!
0"
#60000000
1!
1"
bZZZZZZZZZZZZZZZZZZZZZZZZZZZZZZZZ +
11
b000 2
13
bZZZZZZZZZZZZZZZZZZZZZZZZZZZZZZZZ 7
1S
1%"
1C"
1l"
1q"
1v"
1{"
1##
1(#
1-#
12#
17#
1<#
1A#
1F#
1K#
1P#
1U#
1Z#
1_#
1d#
1i#
1n#
1s#
1x#
1}#
1%$
1*$
1/$
14$
19$
1>$
1C$
1H$
1M$
1V$
bZZZZZZZZZZZZZZZZZZZZZZZZZZZZZZZZ W$
1Z$
b00000000000000000000000001100111 ]$
1_$
b00 a$
1c$
bZZZZZZZZZZZZZZZZZZZZZZZZZZZZZZZZ e$
1f$
b00000000000000000000000001100111 g$
1h$
1o$
1u$
1v$
1{$
1#%
1(%
1-%
1;%
bZZZZZZZZZZZZZZZZZZZZZZZZZZZZZZZZ <%
b0 C%
#65000000
0!
0"
#70000000
1!
1"
b001 2
#75000000
0!
0"
#80000000
1!
1"
b00000000010100000000000100010011 ,
01
b000 2
03
b00000000010100000000000100010011 5
0S
0%"
0C"
0l"
0q"
0v"
0{"
0##
0(#
0-#
02#
07#
0<#
0A#
0F#
0K#
0P#
0U#
0Z#
0_#
0d#
0i#
0n#
0s#
0x#
0}#
0%$
0*$
0/$
04$
09$
0>$
0C$
0H$
0M$
b00000000010100000000000100010011 S$
0f$
0o$
0u$
0{$
0#%
0(%
0-%
0;%
b00000000010100000000000100010011 A%
b00000000010100000000000100010011 B%
#85000000
0!
0"
#90000000
1!
1"
b001 2
#95000000
0!
0"
