bck/results_2.vcd
$date
  Mon Feb 27 19:02:51 2017
$end
$version
  GHDL v0
$end
$timescale
  1 fs
$end
$var reg 1 ! l_clk_100 $end
$scope module fpga $end
$var reg 1 " i_clk_100 $end
$var reg 1 # l_clk $end
$var reg 3 $ l_clk_cnt[2:0] $end
$scope module cpu $end
$var reg 1 % i_clk $end
$var reg 32 & c_imm[31:0] $end
$var reg 4 ' c_alufc[3:0] $end
$var reg 5 ( c_reg[4:0] $end
$var reg 1 ) c_locka $end
$var reg 1 * c_lockb $end
$var reg 1 + c_lockc $end
$var reg 1 , c_rbus $end
$var reg 1 - c_busr $end
$var reg 1 . c_pcbus $end
$var reg 1 / c_bussel $end
$var reg 32 0 r_out[31:0] $end
$var reg 1 1 pc_inc_4 $end
$var reg 32 2 r_pc[31:0] $end
$var reg 32 3 r_ir[31:0] $end
$var reg 32 4 r_a[31:0] $end
$var reg 32 5 r_b[31:0] $end
$var reg 32 6 r_c[31:0] $end
$var reg 32 7 l_busa[31:0] $end
$var reg 32 8 l_busb[31:0] $end
$var reg 32 9 l_busc[31:0] $end
$scope module cu $end
$var reg 1 : i_clk $end
$var reg 32 ; i_instr[31:0] $end
$var reg 32 < q_imm[31:0] $end
$var reg 4 = q_alufc[3:0] $end
$var reg 5 > q_reg[4:0] $end
$var reg 1 ? q_locka $end
$var reg 1 @ q_lockb $end
$var reg 1 A q_lockc $end
$var reg 1 B q_rbus $end
$var reg 1 C q_busr $end
$var reg 1 D q_pcbus $end
$var reg 1 E q_bussel $end
$var reg 1 F q_pc_inc_4 $end
$var reg 32 G d_type[31:0] $end
$var reg 6 H d_format[5:0] $end
$var reg 9 I d_func[8:0] $end
$var reg 1 J c_inc $end
$var reg 1 K c_rst $end
$var reg 8 L c_cycle[7:0] $end
$var reg 5 M r_reg[4:0] $end
$var reg 4 N r_alufc[3:0] $end
$var reg 1 O r_immout $end
$var reg 1 P r_locka $end
$var reg 1 Q r_lockb $end
$var reg 1 R r_lockc $end
$var reg 1 S r_rbus $end
$var reg 1 T r_busr $end
$var reg 1 U r_pcbus $end
$var reg 1 V r_bussel $end
$var reg 32 W l_imm[31:0] $end
$scope module it_dec $end
$var reg 7 X i_instr[6:0] $end
$var reg 32 Y q_type[31:0] $end
$var reg 1 Z l_valid32 $end
$upscope $end
$scope module ifo_dec $end
$var reg 32 [ i_type[31:0] $end
$var reg 6 \ q_format[5:0] $end
$upscope $end
$scope module ifu_dec $end
$var reg 32 ] i_instr[31:0] $end
$var reg 6 ^ i_format[5:0] $end
$var reg 9 _ q_func[8:0] $end
$var reg 8 ` l_func[7:0] $end
$var reg 1 a l_ext $end
$upscope $end
$scope module cg $end
$var reg 1 b i_clk $end
$var reg 1 c i_inc $end
$var reg 1 d i_rst $end
$var reg 8 e q_cycle[7:0] $end
$var reg 8 f l_cycle[7:0] $end
$upscope $end
$scope module rcl $end
$var reg 32 g i_instr[31:0] $end
$var reg 32 h i_type[31:0] $end
$var reg 9 i i_func[8:0] $end
$var reg 8 j i_cycle[7:0] $end
$var reg 5 k q_reg[4:0] $end
$var reg 4 l q_alufc[3:0] $end
$var reg 1 m q_immout $end
$var reg 1 n q_locka $end
$var reg 1 o q_lockb $end
$var reg 1 p q_lockc $end
$var reg 1 q q_rbus $end
$var reg 1 r q_busr $end
$var reg 1 s q_pcbus $end
$var reg 1 t q_bussel $end
$var reg 1 u q_cycle_inc $end
$var reg 1 v q_cycle_rst $end
$var reg 4 w l_func_alu[3:0] $end
$var reg 4 x l_inst_alu[3:0] $end
$var reg 1 y l_alusel $end
$var reg 5 z l_reg[4:0] $end
$var reg 1 { l_regsel $end
$upscope $end
$upscope $end
$scope module rf $end
$var reg 1 | i_clk $end
$var reg 1 } i_we $end
$var reg 1 !" i_oe $end
$var reg 5 "" i_reg[4:0] $end
$var reg 32 #" i_in[31:0] $end
$var reg 32 $" q_out[31:0] $end
$var reg 32 %" l_write[31:0] $end
$var reg 32 &" l_writes[31:0] $end
$var reg 32 '" l_r1[31:0] $end
$var reg 32 (" l_r2[31:0] $end
$var reg 32 )" l_r3[31:0] $end
$var reg 32 *" l_r4[31:0] $end
$var reg 32 +" l_r5[31:0] $end
$var reg 32 ," l_r6[31:0] $end
$var reg 32 -" l_r7[31:0] $end
$var reg 32 ." l_r8[31:0] $end
$var reg 32 /" l_r9[31:0] $end
$var reg 32 0" l_r10[31:0] $end
$var reg 32 1" l_r11[31:0] $end
$var reg 32 2" l_r12[31:0] $end
$var reg 32 3" l_r13[31:0] $end
$var reg 32 4" l_r14[31:0] $end
$var reg 32 5" l_r15[31:0] $end
$var reg 32 6" l_r16[31:0] $end
$var reg 32 7" l_r17[31:0] $end
$var reg 32 8" l_r18[31:0] $end
$var reg 32 9" l_r19[31:0] $end
$var reg 32 :" l_r20[31:0] $end
$var reg 32 ;" l_r21[31:0] $end
$var reg 32 <" l_r22[31:0] $end
$var reg 32 =" l_r23[31:0] $end
$var reg 32 >" l_r24[31:0] $end
$var reg 32 ?" l_r25[31:0] $end
$var reg 32 @" l_r26[31:0] $end
$var reg 32 A" l_r27[31:0] $end
$var reg 32 B" l_r28[31:0] $end
$var reg 32 C" l_r29[31:0] $end
$var reg 32 D" l_r30[31:0] $end
$var reg 32 E" l_r31[31:0] $end
$var reg 32 F" l_out[31:0] $end
$scope module r1 $end
$var reg 1 G" i_clk $end
$var reg 32 H" i_d[31:0] $end
$var reg 1 I" i_w $end
$var reg 32 J" q_d[31:0] $end
$var reg 32 K" l_content[31:0] $end
$upscope $end
$scope module r2 $end
$var reg 1 L" i_clk $end
$var reg 32 M" i_d[31:0] $end
$var reg 1 N" i_w $end
$var reg 32 O" q_d[31:0] $end
$var reg 32 P" l_content[31:0] $end
$upscope $end
$scope module r3 $end
$var reg 1 Q" i_clk $end
$var reg 32 R" i_d[31:0] $end
$var reg 1 S" i_w $end
$var reg 32 T" q_d[31:0] $end
$var reg 32 U" l_content[31:0] $end
$upscope $end
$scope module r4 $end
$var reg 1 V" i_clk $end
$var reg 32 W" i_d[31:0] $end
$var reg 1 X" i_w $end
$var reg 32 Y" q_d[31:0] $end
$var reg 32 Z" l_content[31:0] $end
$upscope $end
$scope module r5 $end
$var reg 1 [" i_clk $end
$var reg 32 \" i_d[31:0] $end
$var reg 1 ]" i_w $end
$var reg 32 ^" q_d[31:0] $end
$var reg 32 _" l_content[31:0] $end
$upscope $end
$scope module r6 $end
$var reg 1 `" i_clk $end
$var reg 32 a" i_d[31:0] $end
$var reg 1 b" i_w $end
$var reg 32 c" q_d[31:0] $end
$var reg 32 d" l_content[31:0] $end
$upscope $end
$scope module r7 $end
$var reg 1 e" i_clk $end
$var reg 32 f" i_d[31:0] $end
$var reg 1 g" i_w $end
$var reg 32 h" q_d[31:0] $end
$var reg 32 i" l_content[31:0] $end
$upscope $end
$scope module r8 $end
$var reg 1 j" i_clk $end
$var reg 32 k" i_d[31:0] $end
$var reg 1 l" i_w $end
$var reg 32 m" q_d[31:0] $end
$var reg 32 n" l_content[31:0] $end
$upscope $end
$scope module r9 $end
$var reg 1 o" i_clk $end
$var reg 32 p" i_d[31:0] $end
$var reg 1 q" i_w $end
$var reg 32 r" q_d[31:0] $end
$var reg 32 s" l_content[31:0] $end
$upscope $end
$scope module r10 $end
$var reg 1 t" i_clk $end
$var reg 32 u" i_d[31:0] $end
$var reg 1 v" i_w $end
$var reg 32 w" q_d[31:0] $end
$var reg 32 x" l_content[31:0] $end
$upscope $end
$scope module r11 $end
$var reg 1 y" i_clk $end
$var reg 32 z" i_d[31:0] $end
$var reg 1 {" i_w $end
$var reg 32 |" q_d[31:0] $end
$var reg 32 }" l_content[31:0] $end
$upscope $end
$scope module r12 $end
$var reg 1 !# i_clk $end
$var reg 32 "# i_d[31:0] $end
$var reg 1 ## i_w $end
$var reg 32 $# q_d[31:0] $end
$var reg 32 %# l_content[31:0] $end
$upscope $end
$scope module r13 $end
$var reg 1 &# i_clk $end
$var reg 32 '# i_d[31:0] $end
$var reg 1 (# i_w $end
$var reg 32 )# q_d[31:0] $end
$var reg 32 *# l_content[31:0] $end
$upscope $end
$scope module r14 $end
$var reg 1 +# i_clk $end
$var reg 32 ,# i_d[31:0] $end
$var reg 1 -# i_w $end
$var reg 32 .# q_d[31:0] $end
$var reg 32 /# l_content[31:0] $end
$upscope $end
$scope module r15 $end
$var reg 1 0# i_clk $end
$var reg 32 1# i_d[31:0] $end
$var reg 1 2# i_w $end
$var reg 32 3# q_d[31:0] $end
$var reg 32 4# l_content[31:0] $end
$upscope $end
$scope module r16 $end
$var reg 1 5# i_clk $end
$var reg 32 6# i_d[31:0] $end
$var reg 1 7# i_w $end
$var reg 32 8# q_d[31:0] $end
$var reg 32 9# l_content[31:0] $end
$upscope $end
$scope module r17 $end
$var reg 1 :# i_clk $end
$var reg 32 ;# i_d[31:0] $end
$var reg 1 <# i_w $end
$var reg 32 =# q_d[31:0] $end
$var reg 32 ># l_content[31:0] $end
$upscope $end
$scope module r18 $end
$var reg 1 ?# i_clk $end
$var reg 32 @# i_d[31:0] $end
$var reg 1 A# i_w $end
$var reg 32 B# q_d[31:0] $end
$var reg 32 C# l_content[31:0] $end
$upscope $end
$scope module r19 $end
$var reg 1 D# i_clk $end
$var reg 32 E# i_d[31:0] $end
$var reg 1 F# i_w $end
$var reg 32 G# q_d[31:0] $end
$var reg 32 H# l_content[31:0] $end
$upscope $end
$scope module r20 $end
$var reg 1 I# i_clk $end
$var reg 32 J# i_d[31:0] $end
$var reg 1 K# i_w $end
$var reg 32 L# q_d[31:0] $end
$var reg 32 M# l_content[31:0] $end
$upscope $end
$scope module r21 $end
$var reg 1 N# i_clk $end
$var reg 32 O# i_d[31:0] $end
$var reg 1 P# i_w $end
$var reg 32 Q# q_d[31:0] $end
$var reg 32 R# l_content[31:0] $end
$upscope $end
$scope module r22 $end
$var reg 1 S# i_clk $end
$var reg 32 T# i_d[31:0] $end
$var reg 1 U# i_w $end
$var reg 32 V# q_d[31:0] $end
$var reg 32 W# l_content[31:0] $end
$upscope $end
$scope module r23 $end
$var reg 1 X# i_clk $end
$var reg 32 Y# i_d[31:0] $end
$var reg 1 Z# i_w $end
$var reg 32 [# q_d[31:0] $end
$var reg 32 \# l_content[31:0] $end
$upscope $end
$scope module r24 $end
$var reg 1 ]# i_clk $end
$var reg 32 ^# i_d[31:0] $end
$var reg 1 _# i_w $end
$var reg 32 `# q_d[31:0] $end
$var reg 32 a# l_content[31:0] $end
$upscope $end
$scope module r25 $end
$var reg 1 b# i_clk $end
$var reg 32 c# i_d[31:0] $end
$var reg 1 d# i_w $end
$var reg 32 e# q_d[31:0] $end
$var reg 32 f# l_content[31:0] $end
$upscope $end
$scope module r26 $end
$var reg 1 g# i_clk $end
$var reg 32 h# i_d[31:0] $end
$var reg 1 i# i_w $end
$var reg 32 j# q_d[31:0] $end
$var reg 32 k# l_content[31:0] $end
$upscope $end
$scope module r27 $end
$var reg 1 l# i_clk $end
$var reg 32 m# i_d[31:0] $end
$var reg 1 n# i_w $end
$var reg 32 o# q_d[31:0] $end
$var reg 32 p# l_content[31:0] $end
$upscope $end
$scope module r28 $end
$var reg 1 q# i_clk $end
$var reg 32 r# i_d[31:0] $end
$var reg 1 s# i_w $end
$var reg 32 t# q_d[31:0] $end
$var reg 32 u# l_content[31:0] $end
$upscope $end
$scope module r29 $end
$var reg 1 v# i_clk $end
$var reg 32 w# i_d[31:0] $end
$var reg 1 x# i_w $end
$var reg 32 y# q_d[31:0] $end
$var reg 32 z# l_content[31:0] $end
$upscope $end
$scope module r30 $end
$var reg 1 {# i_clk $end
$var reg 32 |# i_d[31:0] $end
$var reg 1 }# i_w $end
$var reg 32 !$ q_d[31:0] $end
$var reg 32 "$ l_content[31:0] $end
$upscope $end
$scope module r31 $end
$var reg 1 #$ i_clk $end
$var reg 32 $$ i_d[31:0] $end
$var reg 1 %$ i_w $end
$var reg 32 &$ q_d[31:0] $end
$var reg 32 '$ l_content[31:0] $end
$upscope $end
$upscope $end
$scope module pc $end
$var reg 1 ($ i_clk $end
$var reg 1 )$ i_inc_4 $end
$var reg 1 *$ i_ld $end
$var reg 32 +$ i_in[31:0] $end
$var reg 32 ,$ q_pc[31:0] $end
$var reg 32 -$ l_pc[31:0] $end
$upscope $end
$scope module ir $end
$var reg 1 .$ i_clk $end
$var reg 32 /$ i_d[31:0] $end
$var reg 1 0$ i_w $end
$var reg 32 1$ q_d[31:0] $end
$var reg 32 2$ l_content[31:0] $end
$upscope $end
$scope module reg_a $end
$var reg 1 3$ i_clk $end
$var reg 32 4$ i_d[31:0] $end
$var reg 1 5$ i_w $end
$var reg 32 6$ q_d[31:0] $end
$var reg 32 7$ l_content[31:0] $end
$upscope $end
$scope module reg_b $end
$var reg 1 8$ i_clk $end
$var reg 32 9$ i_d[31:0] $end
$var reg 1 :$ i_w $end
$var reg 32 ;$ q_d[31:0] $end
$var reg 32 <$ l_content[31:0] $end
$upscope $end
$scope module reg_c $end
$var reg 1 =$ i_clk $end
$var reg 32 >$ i_d[31:0] $end
$var reg 1 ?$ i_w $end
$var reg 32 @$ q_d[31:0] $end
$var reg 32 A$ l_content[31:0] $end
$upscope $end
$scope module alu_t $end
$var reg 1 B$ i_clk $end
$var reg 32 C$ i_a[31:0] $end
$var reg 32 D$ i_b[31:0] $end
$var reg 4 E$ i_fc[3:0] $end
$var reg 32 F$ q_o[31:0] $end
$var reg 32 G$ l_alu[31:0] $end
$var reg 32 H$ l_shift[31:0] $end
$upscope $end
$upscope $end
$upscope $end
$enddefinitions $end
#0
1!
1"
0#
b000 $
0%
b00000000000000000001000000000000 &
b0000 '
b00000 (
1)
1*
0+
0,
0-
1.
0/
bZZZZZZZZZZZZZZZZZZZZZZZZZZZZZZZZ 0
01
b00000000000000000000000000000000 2
b00000000000000000001000010010111 3
b00000000000000000000000000000000 4
b00000000000000000000000000000000 5
bZZZZZZZZZZZZZZZZZZZZZZZZZZZZZZZZ 6
b00000000000000000000000000000000 7
b00000000000000000001000000000000 8
b00000000000000000000000000000000 9
0:
b00000000000000000001000010010111 ;
b00000000000000000001000000000000 <
b0000 =
b00000 >
1?
1@
0A
0B
0C
1D
0E
0F
b00000000000000000000000000100000 G
b010000 H
bZZZZZZZZZ I
1J
0K
b00000001 L
b00000 M
b0000 N
1O
1P
1Q
0R
0S
0T
1U
0V
b00000000000000000001000000000000 W
b0010111 X
b00000000000000000000000000100000 Y
1Z
b00000000000000000000000000100000 [
b010000 \
b00000000000000000001000010010111 ]
b010000 ^
bZZZZZZZZZ _
b00000010 `
0a
0b
1c
0d
b00000001 e
b00000001 f
b00000000000000000001000010010111 g
b00000000000000000000000000100000 h
bZZZZZZZZZ i
b00000001 j
b00000 k
b0000 l
1m
1n
1o
0p
0q
0r
1s
0t
1u
0v
b0000 w
b0000 x
0y
b00000 z
0{
0|
0}
0!"
b00000 ""
b00000000000000000000000000000000 #"
bZZZZZZZZZZZZZZZZZZZZZZZZZZZZZZZZ $"
b00000000000000000000000000000000 %"
b00000000000000000000000000000001 &"
b00000000000000000000000000000000 '"
b00000000000000000000000000000000 ("
b00000000000000000000000000000000 )"
b00000000000000000000000000000000 *"
b00000000000000000000000000000000 +"
b00000000000000000000000000000000 ,"
b00000000000000000000000000000000 -"
b00000000000000000000000000000000 ."
b00000000000000000000000000000000 /"
b00000000000000000000000000000000 0"
b00000000000000000000000000000000 1"
b00000000000000000000000000000000 2"
b00000000000000000000000000000000 3"
b00000000000000000000000000000000 4"
b00000000000000000000000000000000 5"
b00000000000000000000000000000000 6"
b00000000000000000000000000000000 7"
b00000000000000000000000000000000 8"
b00000000000000000000000000000000 9"
b00000000000000000000000000000000 :"
b00000000000000000000000000000000 ;"
b00000000000000000000000000000000 <"
b00000000000000000000000000000000 ="
b00000000000000000000000000000000 >"
b00000000000000000000000000000000 ?"
b00000000000000000000000000000000 @"
b00000000000000000000000000000000 A"
b00000000000000000000000000000000 B"
b00000000000000000000000000000000 C"
b00000000000000000000000000000000 D"
b00000000000000000000000000000000 E"
b00000000000000000000000000000000 F"
0G"
b00000000000000000000000000000000 H"
0I"
b00000000000000000000000000000000 J"
b00000000000000000000000000000000 K"
0L"
b00000000000000000000000000000000 M"
0N"
b00000000000000000000000000000000 O"
b00000000000000000000000000000000 P"
0Q"
b00000000000000000000000000000000 R"
0S"
b00000000000000000000000000000000 T"
b00000000000000000000000000000000 U"
0V"
b00000000000000000000000000000000 W"
0X"
b00000000000000000000000000000000 Y"
b00000000000000000000000000000000 Z"
0["
b00000000000000000000000000000000 \"
0]"
b00000000000000000000000000000000 ^"
b00000000000000000000000000000000 _"
0`"
b00000000000000000000000000000000 a"
0b"
b00000000000000000000000000000000 c"
b00000000000000000000000000000000 d"
0e"
b00000000000000000000000000000000 f"
0g"
b00000000000000000000000000000000 h"
b00000000000000000000000000000000 i"
0j"
b00000000000000000000000000000000 k"
0l"
b00000000000000000000000000000000 m"
b00000000000000000000000000000000 n"
0o"
b00000000000000000000000000000000 p"
0q"
b00000000000000000000000000000000 r"
b00000000000000000000000000000000 s"
0t"
b00000000000000000000000000000000 u"
0v"
b00000000000000000000000000000000 w"
b00000000000000000000000000000000 x"
0y"
b00000000000000000000000000000000 z"
0{"
b00000000000000000000000000000000 |"
b00000000000000000000000000000000 }"
0!#
b00000000000000000000000000000000 "#
0##
b00000000000000000000000000000000 $#
b00000000000000000000000000000000 %#
0&#
b00000000000000000000000000000000 '#
0(#
b00000000000000000000000000000000 )#
b00000000000000000000000000000000 *#
0+#
b00000000000000000000000000000000 ,#
0-#
b00000000000000000000000000000000 .#
b00000000000000000000000000000000 /#
00#
b00000000000000000000000000000000 1#
02#
b00000000000000000000000000000000 3#
b00000000000000000000000000000000 4#
05#
b00000000000000000000000000000000 6#
07#
b00000000000000000000000000000000 8#
b00000000000000000000000000000000 9#
0:#
b00000000000000000000000000000000 ;#
0<#
b00000000000000000000000000000000 =#
b00000000000000000000000000000000 >#
0?#
b00000000000000000000000000000000 @#
0A#
b00000000000000000000000000000000 B#
b00000000000000000000000000000000 C#
0D#
b00000000000000000000000000000000 E#
0F#
b00000000000000000000000000000000 G#
b00000000000000000000000000000000 H#
0I#
b00000000000000000000000000000000 J#
0K#
b00000000000000000000000000000000 L#
b00000000000000000000000000000000 M#
0N#
b00000000000000000000000000000000 O#
0P#
b00000000000000000000000000000000 Q#
b00000000000000000000000000000000 R#
0S#
b00000000000000000000000000000000 T#
0U#
b00000000000000000000000000000000 V#
b00000000000000000000000000000000 W#
0X#
b00000000000000000000000000000000 Y#
0Z#
b00000000000000000000000000000000 [#
b00000000000000000000000000000000 \#
0]#
b00000000000000000000000000000000 ^#
0_#
b00000000000000000000000000000000 `#
b00000000000000000000000000000000 a#
0b#
b00000000000000000000000000000000 c#
0d#
b00000000000000000000000000000000 e#
b00000000000000000000000000000000 f#
0g#
b00000000000000000000000000000000 h#
0i#
b00000000000000000000000000000000 j#
b00000000000000000000000000000000 k#
0l#
b00000000000000000000000000000000 m#
0n#
b00000000000000000000000000000000 o#
b00000000000000000000000000000000 p#
0q#
b00000000000000000000000000000000 r#
0s#
b00000000000000000000000000000000 t#
b00000000000000000000000000000000 u#
0v#
b00000000000000000000000000000000 w#
0x#
b00000000000000000000000000000000 y#
b00000000000000000000000000000000 z#
0{#
b00000000000000000000000000000000 |#
0}#
b00000000000000000000000000000000 !$
b00000000000000000000000000000000 "$
0#$
b00000000000000000000000000000000 $$
0%$
b00000000000000000000000000000000 &$
b00000000000000000000000000000000 '$
0($
0)$
0*$
b00000000000000000000000000000000 +$
b00000000000000000000000000000000 ,$
b00000000000000000000000000000000 -$
0.$
b00000000000000000000000000000000 /$
00$
b00000000000000000001000010010111 1$
b00000000000000000001000010010111 2$
03$
b00000000000000000000000000000000 4$
15$
b00000000000000000000000000000000 6$
b00000000000000000000000000000000 7$
08$
b00000000000000000001000000000000 9$
1:$
b00000000000000000000000000000000 ;$
b00000000000000000000000000000000 <$
0=$
bZZZZZZZZZZZZZZZZZZZZZZZZZZZZZZZZ >$
0?$
b00000000000000000000000000000000 @$
b00000000000000000000000000000000 A$
0B$
b00000000000000000000000000000000 C$
b00000000000000000000000000000000 D$
b0000 E$
bZZZZZZZZZZZZZZZZZZZZZZZZZZZZZZZZ F$
bZZZZZZZZZZZZZZZZZZZZZZZZZZZZZZZZ G$
b00000000000000000000000000000000 H$
#5000000
0!
0"
#10000000
1!
1"
b001 $
#15000000
0!
0"
#20000000
1!
1"
1#
b000 $
1%
bZZZZZZZZZZZZZZZZZZZZZZZZZZZZZZZZ &
b0010 '
0)
0*
1+
0.
b00000000000000000001000000000000 5
b00000000000000000000000000000000 6
bZZZZZZZZZZZZZZZZZZZZZZZZZZZZZZZZ 7
bZZZZZZZZZZZZZZZZZZZZZZZZZZZZZZZZ 8
1:
bZZZZZZZZZZZZZZZZZZZZZZZZZZZZZZZZ <
b0010 =
0?
0@
1A
0D
b00000010 L
b0010 N
0O
0P
0Q
1R
0U
1b
b00000010 e
b00000010 f
b00000010 j
b0010 l
0m
0n
0o
1p
0s
b0010 x
1|
1G"
1L"
1Q"
1V"
1["
1`"
1e"
1j"
1o"
1t"
1y"
1!#
1&#
1+#
10#
15#
1:#
1?#
1D#
1I#
1N#
1S#
1X#
1]#
1b#
1g#
1l#
1q#
1v#
1{#
1#$
1($
1.$
13$
bZZZZZZZZZZZZZZZZZZZZZZZZZZZZZZZZ 4$
05$
18$
bZZZZZZZZZZZZZZZZZZZZZZZZZZZZZZZZ 9$
0:$
b00000000000000000001000000000000 ;$
b00000000000000000001000000000000 <$
1=$
b00000000000000000000000000000000 >$
1?$
1B$
b00000000000000000001000000000000 D$
b0010 E$
b00000000000000000000000000000000 F$
b00000000000000000000000000000000 G$
#25000000
0!
0"
#30000000
1!
1"
b001 $
#35000000
0!
0"
#40000000
1!
1"
0#
b000 $
0%
b00000000000000000001000000000000 6
0:
0b
0|
0G"
0L"
0Q"
0V"
0["
0`"
0e"
0j"
0o"
0t"
0y"
0!#
0&#
0+#
00#
05#
0:#
0?#
0D#
0I#
0N#
0S#
0X#
0]#
0b#
0g#
0l#
0q#
0v#
0{#
0#$
0($
0.$
03$
08$
0=$
b00000000000000000001000000000000 >$
0B$
b00000000000000000001000000000000 F$
b00000000000000000001000000000000 G$
#45000000
0!
0"
#50000000
1!
1"
b001 $
#55000000
0!
0"
#60000000
1!
1"
1#
b000 $
1%
b0000 '
b00001 (
0+
1-
11
b00000000000000000001000000000000 9
1:
b0000 =
b00001 >
0A
1C
1F
1K
b00000100 L
b00001 M
b0000 N
0R
1T
1b
1d
b00000100 e
b00000100 f
b00000100 j
b00001 k
b0000 l
0p
1r
1v
b0000 x
b00001 z
1{
1|
1}
b00001 ""
b00000000000000000001000000000000 #"
b00000000000000000000000000000010 %"
b00000000000000000000000000000010 &"
1G"
b00000000000000000001000000000000 H"
1I"
1L"
b00000000000000000001000000000000 M"
1Q"
b00000000000000000001000000000000 R"
1V"
b00000000000000000001000000000000 W"
1["
b00000000000000000001000000000000 \"
1`"
b00000000000000000001000000000000 a"
1e"
b00000000000000000001000000000000 f"
1j"
b00000000000000000001000000000000 k"
1o"
b00000000000000000001000000000000 p"
1t"
b00000000000000000001000000000000 u"
1y"
b00000000000000000001000000000000 z"
1!#
b00000000000000000001000000000000 "#
1&#
b00000000000000000001000000000000 '#
1+#
b00000000000000000001000000000000 ,#
10#
b00000000000000000001000000000000 1#
15#
b00000000000000000001000000000000 6#
1:#
b00000000000000000001000000000000 ;#
1?#
b00000000000000000001000000000000 @#
1D#
b00000000000000000001000000000000 E#
1I#
b00000000000000000001000000000000 J#
1N#
b00000000000000000001000000000000 O#
1S#
b00000000000000000001000000000000 T#
1X#
b00000000000000000001000000000000 Y#
1]#
b00000000000000000001000000000000 ^#
1b#
b00000000000000000001000000000000 c#
1g#
b00000000000000000001000000000000 h#
1l#
b00000000000000000001000000000000 m#
1q#
b00000000000000000001000000000000 r#
1v#
b00000000000000000001000000000000 w#
1{#
b00000000000000000001000000000000 |#
1#$
b00000000000000000001000000000000 $$
1($
1)$
1.$
13$
18$
1=$
0?$
b00000000000000000001000000000000 @$
b00000000000000000001000000000000 A$
1B$
b0000 E$
#65000000
0!
0"
#70000000
1!
1"
b001 $
#75000000
0!
0"
#80000000
1!
1"
0#
b000 $
0%
b00000000000000000000000000000000 6
0:
0b
0|
0G"
0L"
0Q"
0V"
0["
0`"
0e"
0j"
0o"
0t"
0y"
0!#
0&#
0+#
00#
05#
0:#
0?#
0D#
0I#
0N#
0S#
0X#
0]#
0b#
0g#
0l#
0q#
0v#
0{#
0#$
0($
0.$
03$
08$
0=$
b00000000000000000000000000000000 >$
0B$
b00000000000000000000000000000000 F$
b00000000000000000000000000000000 G$
#85000000
0!
0"
#90000000
1!
1"
b001 $
#95000000
0!
0"
#100000000
1!
1"
1#
b000 $
1%
b00000000000000000001000000000000 &
b00000 (
1)
1*
0-
1.
01
b00000000000000000000000000000100 2
b00000000000000000000000000000100 7
b00000000000000000001000000000000 8
1:
b00000000000000000001000000000000 <
b00000 >
1?
1@
0C
1D
0F
0K
b00000001 L
b00000 M
1O
1P
1Q
0T
1U
1b
0d
b00000001 e
b00000001 f
b00000001 j
b00000 k
1m
1n
1o
0r
1s
0v
b00000 z
0{
1|
0}
b00000 ""
b00000000000000000000000000000000 %"
b00000000000000000000000000000001 &"
b00000000000000000001000000000000 '"
b00000000000000000000000000000000 F"
1G"
0I"
b00000000000000000001000000000000 J"
b00000000000000000001000000000000 K"
1L"
1Q"
1V"
1["
1`"
1e"
1j"
1o"
1t"
1y"
1!#
1&#
1+#
10#
15#
1:#
1?#
1D#
1I#
1N#
1S#
1X#
1]#
1b#
1g#
1l#
1q#
1v#
1{#
1#$
1($
0)$
b00000000000000000000000000000100 ,$
b00000000000000000000000000000100 -$
1.$
13$
b00000000000000000000000000000100 4$
15$
18$
b00000000000000000001000000000000 9$
1:$
1=$
1B$
#105000000
0!
0"
#110000000
1!
1"
b001 $
#115000000
0!
0"
#120000000
1!
1"
0#
b000 $
0%
0:
0b
0|
0G"
0L"
0Q"
0V"
0["
0`"
0e"
0j"
0o"
0t"
0y"
0!#
0&#
0+#
00#
05#
0:#
0?#
0D#
0I#
0N#
0S#
0X#
0]#
0b#
0g#
0l#
0q#
0v#
0{#
0#$
0($
0.$
03$
08$
0=$
0B$
#125000000
0!
0"
#130000000
1!
1"
b001 $
#135000000
0!
0"
#140000000
1!
1"
1#
b000 $
1%
bZZZZZZZZZZZZZZZZZZZZZZZZZZZZZZZZ &
b0010 '
0)
0*
1+
0.
b00000000000000000000000000000100 4
bZZZZZZZZZZZZZZZZZZZZZZZZZZZZZZZZ 7
bZZZZZZZZZZZZZZZZZZZZZZZZZZZZZZZZ 8
1:
bZZZZZZZZZZZZZZZZZZZZZZZZZZZZZZZZ <
b0010 =
0?
0@
1A
0D
b00000010 L
b0010 N
0O
0P
0Q
1R
0U
1b
b00000010 e
b00000010 f
b00000010 j
b0010 l
0m
0n
0o
1p
0s
b0010 x
1|
1G"
1L"
1Q"
1V"
1["
1`"
1e"
1j"
1o"
1t"
1y"
1!#
1&#
1+#
10#
15#
1:#
1?#
1D#
1I#
1N#
1S#
1X#
1]#
1b#
1g#
1l#
1q#
1v#
1{#
1#$
1($
1.$
13$
bZZZZZZZZZZZZZZZZZZZZZZZZZZZZZZZZ 4$
05$
b00000000000000000000000000000100 6$
b00000000000000000000000000000100 7$
18$
bZZZZZZZZZZZZZZZZZZZZZZZZZZZZZZZZ 9$
0:$
1=$
1?$
1B$
b00000000000000000000000000000100 C$
b0010 E$
#145000000
0!
0"
#150000000
1!
1"
b001 $
#155000000
0!
0"
#160000000
1!
1"
0#
b000 $
0%
b00000000000000000001000000000100 6
0:
0b
0|
0G"
0L"
0Q"
0V"
0["
0`"
0e"
0j"
0o"
0t"
0y"
0!#
0&#
0+#
00#
05#
0:#
0?#
0D#
0I#
0N#
0S#
0X#
0]#
0b#
0g#
0l#
0q#
0v#
0{#
0#$
0($
0.$
03$
08$
0=$
b00000000000000000001000000000100 >$
0B$
b00000000000000000001000000000100 F$
b00000000000000000001000000000100 G$
b00000000000000000000000000000100 H$
#165000000
0!
0"
#170000000
1!
1"
b001 $
#175000000
0!
0"
